<?xml version="1.0" encoding="utf-8"?>
<!DOCTYPE eagle SYSTEM "eagle.dtd">
<eagle version="9.1.3">
<drawing>
<settings>
<setting alwaysvectorfont="yes"/>
<setting verticaltext="up"/>
</settings>
<grid distance="25" unitdist="mil" unit="mm" style="lines" multiple="1" display="no" altdistance="5" altunitdist="mil" altunit="mil"/>
<layers>
<layer number="1" name="Top" color="4" fill="1" visible="yes" active="yes"/>
<layer number="2" name="Route2" color="16" fill="1" visible="no" active="no"/>
<layer number="3" name="Route3" color="17" fill="1" visible="no" active="no"/>
<layer number="4" name="Route4" color="18" fill="1" visible="no" active="no"/>
<layer number="5" name="Route5" color="19" fill="1" visible="no" active="no"/>
<layer number="6" name="Route6" color="25" fill="1" visible="no" active="no"/>
<layer number="7" name="Route7" color="26" fill="1" visible="no" active="no"/>
<layer number="8" name="Route8" color="27" fill="1" visible="no" active="no"/>
<layer number="9" name="Route9" color="28" fill="1" visible="no" active="no"/>
<layer number="10" name="Route10" color="29" fill="1" visible="no" active="no"/>
<layer number="11" name="Route11" color="30" fill="1" visible="no" active="no"/>
<layer number="12" name="Route12" color="20" fill="1" visible="no" active="no"/>
<layer number="13" name="Route13" color="21" fill="1" visible="no" active="no"/>
<layer number="14" name="Route14" color="22" fill="1" visible="no" active="no"/>
<layer number="15" name="Route15" color="23" fill="1" visible="no" active="no"/>
<layer number="16" name="Bottom" color="1" fill="1" visible="yes" active="yes"/>
<layer number="17" name="Pads" color="2" fill="1" visible="yes" active="yes"/>
<layer number="18" name="Vias" color="2" fill="1" visible="yes" active="yes"/>
<layer number="19" name="Unrouted" color="6" fill="1" visible="yes" active="yes"/>
<layer number="20" name="Dimension" color="24" fill="1" visible="yes" active="yes"/>
<layer number="21" name="tPlace" color="7" fill="1" visible="yes" active="yes"/>
<layer number="22" name="bPlace" color="7" fill="1" visible="yes" active="yes"/>
<layer number="23" name="tOrigins" color="15" fill="1" visible="yes" active="yes"/>
<layer number="24" name="bOrigins" color="15" fill="1" visible="yes" active="yes"/>
<layer number="25" name="tNames" color="7" fill="1" visible="yes" active="yes"/>
<layer number="26" name="bNames" color="7" fill="1" visible="yes" active="yes"/>
<layer number="27" name="tValues" color="7" fill="1" visible="yes" active="yes"/>
<layer number="28" name="bValues" color="7" fill="1" visible="yes" active="yes"/>
<layer number="29" name="tStop" color="7" fill="3" visible="no" active="yes"/>
<layer number="30" name="bStop" color="7" fill="6" visible="no" active="yes"/>
<layer number="31" name="tCream" color="7" fill="4" visible="no" active="yes"/>
<layer number="32" name="bCream" color="7" fill="5" visible="no" active="yes"/>
<layer number="33" name="tFinish" color="6" fill="3" visible="no" active="yes"/>
<layer number="34" name="bFinish" color="6" fill="6" visible="no" active="yes"/>
<layer number="35" name="tGlue" color="7" fill="4" visible="no" active="yes"/>
<layer number="36" name="bGlue" color="7" fill="5" visible="no" active="yes"/>
<layer number="37" name="tTest" color="7" fill="1" visible="no" active="yes"/>
<layer number="38" name="bTest" color="7" fill="1" visible="no" active="yes"/>
<layer number="39" name="tKeepout" color="4" fill="11" visible="yes" active="yes"/>
<layer number="40" name="bKeepout" color="1" fill="11" visible="yes" active="yes"/>
<layer number="41" name="tRestrict" color="4" fill="10" visible="yes" active="yes"/>
<layer number="42" name="bRestrict" color="1" fill="10" visible="yes" active="yes"/>
<layer number="43" name="vRestrict" color="2" fill="10" visible="yes" active="yes"/>
<layer number="44" name="Drills" color="7" fill="1" visible="no" active="yes"/>
<layer number="45" name="Holes" color="7" fill="1" visible="yes" active="yes"/>
<layer number="46" name="Milling" color="3" fill="1" visible="no" active="yes"/>
<layer number="47" name="Measures" color="7" fill="1" visible="no" active="yes"/>
<layer number="48" name="Document" color="7" fill="1" visible="yes" active="yes"/>
<layer number="49" name="Reference" color="7" fill="1" visible="yes" active="yes"/>
<layer number="51" name="tDocu" color="7" fill="1" visible="yes" active="yes"/>
<layer number="52" name="bDocu" color="7" fill="1" visible="yes" active="yes"/>
<layer number="88" name="SimResults" color="9" fill="1" visible="no" active="no"/>
<layer number="89" name="SimProbes" color="9" fill="1" visible="no" active="no"/>
<layer number="90" name="Modules" color="5" fill="1" visible="no" active="no"/>
<layer number="91" name="Nets" color="2" fill="1" visible="no" active="no"/>
<layer number="92" name="Busses" color="1" fill="1" visible="no" active="no"/>
<layer number="93" name="Pins" color="2" fill="1" visible="no" active="no"/>
<layer number="94" name="Symbols" color="4" fill="1" visible="no" active="no"/>
<layer number="95" name="Names" color="7" fill="1" visible="no" active="no"/>
<layer number="96" name="Values" color="7" fill="1" visible="no" active="no"/>
<layer number="97" name="Info" color="7" fill="1" visible="no" active="no"/>
<layer number="98" name="Guide" color="6" fill="1" visible="no" active="no"/>
<layer number="99" name="SpiceOrder" color="5" fill="1" visible="no" active="no"/>
</layers>
<board>
<plain>
<wire x1="0" y1="0" x2="100" y2="0" width="0" layer="20"/>
<wire x1="100" y1="0" x2="100" y2="100" width="0" layer="20"/>
<wire x1="100" y1="100" x2="0" y2="100" width="0" layer="20"/>
<wire x1="0" y1="100" x2="0" y2="0" width="0" layer="20"/>
<hole x="5" y="5" drill="3"/>
<hole x="95" y="95" drill="3"/>
<hole x="5" y="95" drill="3"/>
<hole x="95" y="5" drill="3"/>
<text x="52.6025" y="1.515" size="1.5" layer="21">Logan Rosenmayer &amp; Daksh Saraf
Low Cost Distrubuted BMS 
BMS Slave Rev 3.0
11-8-18</text>
<text x="24.13" y="83.185" size="5.08" layer="21">Illini EV Concept</text>
</plain>
<libraries>
<library name="eagle-ltspice" urn="urn:adsk.eagle:library:217">
<description>Default symbols for import LTspice schematics&lt;p&gt;
2012-10-29 alf@cadsoft.de&lt;br&gt;</description>
<packages>
<package name="C1206" urn="urn:adsk.eagle:footprint:13201/1" library_version="1">
<description>&lt;b&gt;CAPACITOR&lt;/b&gt;</description>
<wire x1="-2.473" y1="0.983" x2="2.473" y2="0.983" width="0.0508" layer="39"/>
<wire x1="2.473" y1="-0.983" x2="-2.473" y2="-0.983" width="0.0508" layer="39"/>
<wire x1="-2.473" y1="-0.983" x2="-2.473" y2="0.983" width="0.0508" layer="39"/>
<wire x1="2.473" y1="0.983" x2="2.473" y2="-0.983" width="0.0508" layer="39"/>
<wire x1="-0.965" y1="0.787" x2="0.965" y2="0.787" width="0.1016" layer="51"/>
<wire x1="-0.965" y1="-0.787" x2="0.965" y2="-0.787" width="0.1016" layer="51"/>
<rectangle x1="-1.7018" y1="-0.8509" x2="-0.9517" y2="0.8491" layer="51"/>
<rectangle x1="0.9517" y1="-0.8491" x2="1.7018" y2="0.8509" layer="51"/>
<rectangle x1="-0.1999" y1="-0.4001" x2="0.1999" y2="0.4001" layer="35"/>
<smd name="1" x="-1.4" y="0" dx="1.6" dy="1.8" layer="1"/>
<smd name="2" x="1.4" y="0" dx="1.6" dy="1.8" layer="1"/>
<text x="-1.27" y="1.27" size="1.27" layer="25">&gt;NAME</text>
<text x="-1.27" y="-2.54" size="1.27" layer="27">&gt;VALUE</text>
</package>
<package name="R1206" urn="urn:adsk.eagle:footprint:13238/1" library_version="1">
<description>&lt;b&gt;RESISTOR&lt;/b&gt;</description>
<wire x1="0.9525" y1="-0.8128" x2="-0.9652" y2="-0.8128" width="0.1524" layer="51"/>
<wire x1="0.9525" y1="0.8128" x2="-0.9652" y2="0.8128" width="0.1524" layer="51"/>
<wire x1="-2.473" y1="0.983" x2="2.473" y2="0.983" width="0.0508" layer="39"/>
<wire x1="2.473" y1="0.983" x2="2.473" y2="-0.983" width="0.0508" layer="39"/>
<wire x1="2.473" y1="-0.983" x2="-2.473" y2="-0.983" width="0.0508" layer="39"/>
<wire x1="-2.473" y1="-0.983" x2="-2.473" y2="0.983" width="0.0508" layer="39"/>
<rectangle x1="-1.6891" y1="-0.8763" x2="-0.9525" y2="0.8763" layer="51"/>
<rectangle x1="0.9525" y1="-0.8763" x2="1.6891" y2="0.8763" layer="51"/>
<rectangle x1="-0.3" y1="-0.7" x2="0.3" y2="0.7" layer="35"/>
<smd name="1" x="-1.422" y="0" dx="1.6" dy="1.803" layer="1"/>
<smd name="2" x="1.422" y="0" dx="1.6" dy="1.803" layer="1"/>
<text x="-1.27" y="1.27" size="1.27" layer="25">&gt;NAME</text>
<text x="-1.27" y="-2.54" size="1.27" layer="27">&gt;VALUE</text>
</package>
<package name="R0603" urn="urn:adsk.eagle:footprint:13235/1" library_version="1">
<description>&lt;b&gt;RESISTOR&lt;/b&gt;</description>
<wire x1="-0.432" y1="-0.356" x2="0.432" y2="-0.356" width="0.1524" layer="51"/>
<wire x1="0.432" y1="0.356" x2="-0.432" y2="0.356" width="0.1524" layer="51"/>
<wire x1="-1.473" y1="0.983" x2="1.473" y2="0.983" width="0.0508" layer="39"/>
<wire x1="1.473" y1="0.983" x2="1.473" y2="-0.983" width="0.0508" layer="39"/>
<wire x1="1.473" y1="-0.983" x2="-1.473" y2="-0.983" width="0.0508" layer="39"/>
<wire x1="-1.473" y1="-0.983" x2="-1.473" y2="0.983" width="0.0508" layer="39"/>
<rectangle x1="0.4318" y1="-0.4318" x2="0.8382" y2="0.4318" layer="51"/>
<rectangle x1="-0.8382" y1="-0.4318" x2="-0.4318" y2="0.4318" layer="51"/>
<rectangle x1="-0.1999" y1="-0.4001" x2="0.1999" y2="0.4001" layer="35"/>
<smd name="1" x="-0.85" y="0" dx="1" dy="1.1" layer="1"/>
<smd name="2" x="0.85" y="0" dx="1" dy="1.1" layer="1"/>
<text x="-0.635" y="0.635" size="1.27" layer="25">&gt;NAME</text>
<text x="-0.635" y="-1.905" size="1.27" layer="27">&gt;VALUE</text>
</package>
</packages>
<packages3d>
<package3d name="C1206" urn="urn:adsk.eagle:package:13279/1" type="box" library_version="1">
<description>CAPACITOR</description>
</package3d>
<package3d name="R1206" urn="urn:adsk.eagle:package:13301/1" type="box" library_version="1">
<description>RESISTOR</description>
</package3d>
<package3d name="R0603" urn="urn:adsk.eagle:package:13302/1" type="box" library_version="1">
<description>RESISTOR</description>
</package3d>
</packages3d>
</library>
<library name="diode" urn="urn:adsk.eagle:library:210">
<description>&lt;b&gt;Diodes&lt;/b&gt;&lt;p&gt;
Based on the following sources:
&lt;ul&gt;
&lt;li&gt;Motorola : www.onsemi.com
&lt;li&gt;Fairchild : www.fairchildsemi.com
&lt;li&gt;Philips : www.semiconductors.com
&lt;li&gt;Vishay : www.vishay.de
&lt;/ul&gt;
&lt;author&gt;Created by librarian@cadsoft.de&lt;/author&gt;</description>
<packages>
<package name="DO-214AC" urn="urn:adsk.eagle:footprint:43216/1" library_version="2">
<description>&lt;b&gt;SURFACE MOUNT GENERAL RECTIFIER&lt;/b&gt; JEDEC DO-214AC molded platic body&lt;p&gt;
Method 2026&lt;br&gt;
Source: http://www.kingtronics.com/SMD_M7/M7_SMD_4007.pdf</description>
<wire x1="-2.15" y1="1.3" x2="2.15" y2="1.3" width="0.2032" layer="51"/>
<wire x1="2.15" y1="1.3" x2="2.15" y2="-1.3" width="0.2032" layer="51"/>
<wire x1="2.15" y1="-1.3" x2="-2.15" y2="-1.3" width="0.2032" layer="51"/>
<wire x1="-2.15" y1="-1.3" x2="-2.15" y2="1.3" width="0.2032" layer="51"/>
<wire x1="-1.035" y1="1.3" x2="1.025" y2="1.3" width="0.2032" layer="21"/>
<wire x1="1.025" y1="-1.3" x2="-1.035" y2="-1.3" width="0.2032" layer="21"/>
<smd name="C" x="-2.025" y="0" dx="1.8" dy="2.4" layer="1"/>
<smd name="A" x="2.025" y="0" dx="1.8" dy="2.4" layer="1" rot="R180"/>
<text x="-2.54" y="1.905" size="1.27" layer="25">&gt;NAME</text>
<text x="-2.54" y="-3.175" size="1.27" layer="27">&gt;VALUE</text>
<rectangle x1="-2.825" y1="-1.1" x2="-2.175" y2="1.1" layer="51"/>
<rectangle x1="2.175" y1="-1.1" x2="2.825" y2="1.1" layer="51" rot="R180"/>
<rectangle x1="-1.065" y1="-1.225" x2="-0.39" y2="1.225" layer="21"/>
<rectangle x1="-1.75" y1="-1.225" x2="-1.075" y2="1.225" layer="51"/>
</package>
</packages>
<packages3d>
<package3d name="DO-214AC" urn="urn:adsk.eagle:package:43416/2" type="model" library_version="2">
<description>SURFACE MOUNT GENERAL RECTIFIER JEDEC DO-214AC molded platic body
Method 2026
Source: http://www.kingtronics.com/SMD_M7/M7_SMD_4007.pdf</description>
</package3d>
</packages3d>
</library>
<library name="pinhead" urn="urn:adsk.eagle:library:325">
<description>&lt;b&gt;Pin Header Connectors&lt;/b&gt;&lt;p&gt;
&lt;author&gt;Created by librarian@cadsoft.de&lt;/author&gt;</description>
<packages>
<package name="2X03" urn="urn:adsk.eagle:footprint:22348/1" library_version="3">
<description>&lt;b&gt;PIN HEADER&lt;/b&gt;</description>
<wire x1="-3.81" y1="-1.905" x2="-3.175" y2="-2.54" width="0.1524" layer="21"/>
<wire x1="-1.905" y1="-2.54" x2="-1.27" y2="-1.905" width="0.1524" layer="21"/>
<wire x1="-1.27" y1="-1.905" x2="-0.635" y2="-2.54" width="0.1524" layer="21"/>
<wire x1="0.635" y1="-2.54" x2="1.27" y2="-1.905" width="0.1524" layer="21"/>
<wire x1="-3.81" y1="-1.905" x2="-3.81" y2="1.905" width="0.1524" layer="21"/>
<wire x1="-3.81" y1="1.905" x2="-3.175" y2="2.54" width="0.1524" layer="21"/>
<wire x1="-3.175" y1="2.54" x2="-1.905" y2="2.54" width="0.1524" layer="21"/>
<wire x1="-1.905" y1="2.54" x2="-1.27" y2="1.905" width="0.1524" layer="21"/>
<wire x1="-1.27" y1="1.905" x2="-0.635" y2="2.54" width="0.1524" layer="21"/>
<wire x1="-0.635" y1="2.54" x2="0.635" y2="2.54" width="0.1524" layer="21"/>
<wire x1="0.635" y1="2.54" x2="1.27" y2="1.905" width="0.1524" layer="21"/>
<wire x1="-1.27" y1="1.905" x2="-1.27" y2="-1.905" width="0.1524" layer="21"/>
<wire x1="1.27" y1="1.905" x2="1.27" y2="-1.905" width="0.1524" layer="21"/>
<wire x1="-0.635" y1="-2.54" x2="0.635" y2="-2.54" width="0.1524" layer="21"/>
<wire x1="-3.175" y1="-2.54" x2="-1.905" y2="-2.54" width="0.1524" layer="21"/>
<wire x1="1.27" y1="-1.905" x2="1.905" y2="-2.54" width="0.1524" layer="21"/>
<wire x1="3.175" y1="-2.54" x2="3.81" y2="-1.905" width="0.1524" layer="21"/>
<wire x1="1.27" y1="1.905" x2="1.905" y2="2.54" width="0.1524" layer="21"/>
<wire x1="1.905" y1="2.54" x2="3.175" y2="2.54" width="0.1524" layer="21"/>
<wire x1="3.175" y1="2.54" x2="3.81" y2="1.905" width="0.1524" layer="21"/>
<wire x1="3.81" y1="1.905" x2="3.81" y2="-1.905" width="0.1524" layer="21"/>
<wire x1="1.905" y1="-2.54" x2="3.175" y2="-2.54" width="0.1524" layer="21"/>
<pad name="1" x="-2.54" y="-1.27" drill="1.016" shape="octagon"/>
<pad name="2" x="-2.54" y="1.27" drill="1.016" shape="octagon"/>
<pad name="3" x="0" y="-1.27" drill="1.016" shape="octagon"/>
<pad name="4" x="0" y="1.27" drill="1.016" shape="octagon"/>
<pad name="5" x="2.54" y="-1.27" drill="1.016" shape="octagon"/>
<pad name="6" x="2.54" y="1.27" drill="1.016" shape="octagon"/>
<text x="-3.81" y="3.175" size="1.27" layer="25" ratio="10">&gt;NAME</text>
<text x="-3.81" y="-4.445" size="1.27" layer="27">&gt;VALUE</text>
<rectangle x1="-2.794" y1="-1.524" x2="-2.286" y2="-1.016" layer="51"/>
<rectangle x1="-2.794" y1="1.016" x2="-2.286" y2="1.524" layer="51"/>
<rectangle x1="-0.254" y1="1.016" x2="0.254" y2="1.524" layer="51"/>
<rectangle x1="-0.254" y1="-1.524" x2="0.254" y2="-1.016" layer="51"/>
<rectangle x1="2.286" y1="1.016" x2="2.794" y2="1.524" layer="51"/>
<rectangle x1="2.286" y1="-1.524" x2="2.794" y2="-1.016" layer="51"/>
</package>
<package name="2X10" urn="urn:adsk.eagle:footprint:22268/1" library_version="3">
<description>&lt;b&gt;PIN HEADER&lt;/b&gt;</description>
<wire x1="-12.7" y1="-1.905" x2="-12.065" y2="-2.54" width="0.1524" layer="21"/>
<wire x1="-10.795" y1="-2.54" x2="-10.16" y2="-1.905" width="0.1524" layer="21"/>
<wire x1="-10.16" y1="-1.905" x2="-9.525" y2="-2.54" width="0.1524" layer="21"/>
<wire x1="-8.255" y1="-2.54" x2="-7.62" y2="-1.905" width="0.1524" layer="21"/>
<wire x1="-7.62" y1="-1.905" x2="-6.985" y2="-2.54" width="0.1524" layer="21"/>
<wire x1="-5.715" y1="-2.54" x2="-5.08" y2="-1.905" width="0.1524" layer="21"/>
<wire x1="-5.08" y1="-1.905" x2="-4.445" y2="-2.54" width="0.1524" layer="21"/>
<wire x1="-3.175" y1="-2.54" x2="-2.54" y2="-1.905" width="0.1524" layer="21"/>
<wire x1="-2.54" y1="-1.905" x2="-1.905" y2="-2.54" width="0.1524" layer="21"/>
<wire x1="-0.635" y1="-2.54" x2="0" y2="-1.905" width="0.1524" layer="21"/>
<wire x1="0" y1="-1.905" x2="0.635" y2="-2.54" width="0.1524" layer="21"/>
<wire x1="1.905" y1="-2.54" x2="2.54" y2="-1.905" width="0.1524" layer="21"/>
<wire x1="-12.7" y1="-1.905" x2="-12.7" y2="1.905" width="0.1524" layer="21"/>
<wire x1="-12.7" y1="1.905" x2="-12.065" y2="2.54" width="0.1524" layer="21"/>
<wire x1="-12.065" y1="2.54" x2="-10.795" y2="2.54" width="0.1524" layer="21"/>
<wire x1="-10.795" y1="2.54" x2="-10.16" y2="1.905" width="0.1524" layer="21"/>
<wire x1="-10.16" y1="1.905" x2="-9.525" y2="2.54" width="0.1524" layer="21"/>
<wire x1="-9.525" y1="2.54" x2="-8.255" y2="2.54" width="0.1524" layer="21"/>
<wire x1="-8.255" y1="2.54" x2="-7.62" y2="1.905" width="0.1524" layer="21"/>
<wire x1="-7.62" y1="1.905" x2="-6.985" y2="2.54" width="0.1524" layer="21"/>
<wire x1="-6.985" y1="2.54" x2="-5.715" y2="2.54" width="0.1524" layer="21"/>
<wire x1="-5.715" y1="2.54" x2="-5.08" y2="1.905" width="0.1524" layer="21"/>
<wire x1="-5.08" y1="1.905" x2="-4.445" y2="2.54" width="0.1524" layer="21"/>
<wire x1="-4.445" y1="2.54" x2="-3.175" y2="2.54" width="0.1524" layer="21"/>
<wire x1="-3.175" y1="2.54" x2="-2.54" y2="1.905" width="0.1524" layer="21"/>
<wire x1="-2.54" y1="1.905" x2="-1.905" y2="2.54" width="0.1524" layer="21"/>
<wire x1="-1.905" y1="2.54" x2="-0.635" y2="2.54" width="0.1524" layer="21"/>
<wire x1="-0.635" y1="2.54" x2="0" y2="1.905" width="0.1524" layer="21"/>
<wire x1="0" y1="1.905" x2="0.635" y2="2.54" width="0.1524" layer="21"/>
<wire x1="0.635" y1="2.54" x2="1.905" y2="2.54" width="0.1524" layer="21"/>
<wire x1="1.905" y1="2.54" x2="2.54" y2="1.905" width="0.1524" layer="21"/>
<wire x1="2.54" y1="1.905" x2="3.175" y2="2.54" width="0.1524" layer="21"/>
<wire x1="3.175" y1="2.54" x2="4.445" y2="2.54" width="0.1524" layer="21"/>
<wire x1="4.445" y1="2.54" x2="5.08" y2="1.905" width="0.1524" layer="21"/>
<wire x1="5.08" y1="1.905" x2="5.715" y2="2.54" width="0.1524" layer="21"/>
<wire x1="5.715" y1="2.54" x2="6.985" y2="2.54" width="0.1524" layer="21"/>
<wire x1="6.985" y1="2.54" x2="7.62" y2="1.905" width="0.1524" layer="21"/>
<wire x1="7.62" y1="1.905" x2="8.255" y2="2.54" width="0.1524" layer="21"/>
<wire x1="8.255" y1="2.54" x2="9.525" y2="2.54" width="0.1524" layer="21"/>
<wire x1="9.525" y1="2.54" x2="10.16" y2="1.905" width="0.1524" layer="21"/>
<wire x1="10.16" y1="-1.905" x2="9.525" y2="-2.54" width="0.1524" layer="21"/>
<wire x1="7.62" y1="-1.905" x2="8.255" y2="-2.54" width="0.1524" layer="21"/>
<wire x1="7.62" y1="-1.905" x2="6.985" y2="-2.54" width="0.1524" layer="21"/>
<wire x1="5.08" y1="-1.905" x2="5.715" y2="-2.54" width="0.1524" layer="21"/>
<wire x1="5.08" y1="-1.905" x2="4.445" y2="-2.54" width="0.1524" layer="21"/>
<wire x1="2.54" y1="-1.905" x2="3.175" y2="-2.54" width="0.1524" layer="21"/>
<wire x1="-10.16" y1="1.905" x2="-10.16" y2="-1.905" width="0.1524" layer="21"/>
<wire x1="-7.62" y1="1.905" x2="-7.62" y2="-1.905" width="0.1524" layer="21"/>
<wire x1="-5.08" y1="1.905" x2="-5.08" y2="-1.905" width="0.1524" layer="21"/>
<wire x1="-2.54" y1="1.905" x2="-2.54" y2="-1.905" width="0.1524" layer="21"/>
<wire x1="0" y1="1.905" x2="0" y2="-1.905" width="0.1524" layer="21"/>
<wire x1="2.54" y1="1.905" x2="2.54" y2="-1.905" width="0.1524" layer="21"/>
<wire x1="5.08" y1="1.905" x2="5.08" y2="-1.905" width="0.1524" layer="21"/>
<wire x1="7.62" y1="1.905" x2="7.62" y2="-1.905" width="0.1524" layer="21"/>
<wire x1="10.16" y1="1.905" x2="10.16" y2="-1.905" width="0.1524" layer="21"/>
<wire x1="8.255" y1="-2.54" x2="9.525" y2="-2.54" width="0.1524" layer="21"/>
<wire x1="5.715" y1="-2.54" x2="6.985" y2="-2.54" width="0.1524" layer="21"/>
<wire x1="3.175" y1="-2.54" x2="4.445" y2="-2.54" width="0.1524" layer="21"/>
<wire x1="0.635" y1="-2.54" x2="1.905" y2="-2.54" width="0.1524" layer="21"/>
<wire x1="-1.905" y1="-2.54" x2="-0.635" y2="-2.54" width="0.1524" layer="21"/>
<wire x1="-4.445" y1="-2.54" x2="-3.175" y2="-2.54" width="0.1524" layer="21"/>
<wire x1="-6.985" y1="-2.54" x2="-5.715" y2="-2.54" width="0.1524" layer="21"/>
<wire x1="-9.525" y1="-2.54" x2="-8.255" y2="-2.54" width="0.1524" layer="21"/>
<wire x1="-12.065" y1="-2.54" x2="-10.795" y2="-2.54" width="0.1524" layer="21"/>
<wire x1="10.16" y1="1.905" x2="10.795" y2="2.54" width="0.1524" layer="21"/>
<wire x1="10.795" y1="2.54" x2="12.065" y2="2.54" width="0.1524" layer="21"/>
<wire x1="12.065" y1="2.54" x2="12.7" y2="1.905" width="0.1524" layer="21"/>
<wire x1="12.7" y1="-1.905" x2="12.065" y2="-2.54" width="0.1524" layer="21"/>
<wire x1="10.16" y1="-1.905" x2="10.795" y2="-2.54" width="0.1524" layer="21"/>
<wire x1="12.7" y1="1.905" x2="12.7" y2="-1.905" width="0.1524" layer="21"/>
<wire x1="10.795" y1="-2.54" x2="12.065" y2="-2.54" width="0.1524" layer="21"/>
<pad name="1" x="-11.43" y="-1.27" drill="1.016" shape="octagon"/>
<pad name="2" x="-11.43" y="1.27" drill="1.016" shape="octagon"/>
<pad name="3" x="-8.89" y="-1.27" drill="1.016" shape="octagon"/>
<pad name="4" x="-8.89" y="1.27" drill="1.016" shape="octagon"/>
<pad name="5" x="-6.35" y="-1.27" drill="1.016" shape="octagon"/>
<pad name="6" x="-6.35" y="1.27" drill="1.016" shape="octagon"/>
<pad name="7" x="-3.81" y="-1.27" drill="1.016" shape="octagon"/>
<pad name="8" x="-3.81" y="1.27" drill="1.016" shape="octagon"/>
<pad name="9" x="-1.27" y="-1.27" drill="1.016" shape="octagon"/>
<pad name="10" x="-1.27" y="1.27" drill="1.016" shape="octagon"/>
<pad name="11" x="1.27" y="-1.27" drill="1.016" shape="octagon"/>
<pad name="12" x="1.27" y="1.27" drill="1.016" shape="octagon"/>
<pad name="13" x="3.81" y="-1.27" drill="1.016" shape="octagon"/>
<pad name="14" x="3.81" y="1.27" drill="1.016" shape="octagon"/>
<pad name="15" x="6.35" y="-1.27" drill="1.016" shape="octagon"/>
<pad name="16" x="6.35" y="1.27" drill="1.016" shape="octagon"/>
<pad name="17" x="8.89" y="-1.27" drill="1.016" shape="octagon"/>
<pad name="18" x="8.89" y="1.27" drill="1.016" shape="octagon"/>
<pad name="19" x="11.43" y="-1.27" drill="1.016" shape="octagon"/>
<pad name="20" x="11.43" y="1.27" drill="1.016" shape="octagon"/>
<text x="-12.7" y="3.175" size="1.27" layer="25" ratio="10">&gt;NAME</text>
<text x="-12.7" y="-4.445" size="1.27" layer="27">&gt;VALUE</text>
<rectangle x1="-11.684" y1="-1.524" x2="-11.176" y2="-1.016" layer="51"/>
<rectangle x1="-11.684" y1="1.016" x2="-11.176" y2="1.524" layer="51"/>
<rectangle x1="-9.144" y1="1.016" x2="-8.636" y2="1.524" layer="51"/>
<rectangle x1="-9.144" y1="-1.524" x2="-8.636" y2="-1.016" layer="51"/>
<rectangle x1="-6.604" y1="1.016" x2="-6.096" y2="1.524" layer="51"/>
<rectangle x1="-6.604" y1="-1.524" x2="-6.096" y2="-1.016" layer="51"/>
<rectangle x1="-4.064" y1="1.016" x2="-3.556" y2="1.524" layer="51"/>
<rectangle x1="-1.524" y1="1.016" x2="-1.016" y2="1.524" layer="51"/>
<rectangle x1="1.016" y1="1.016" x2="1.524" y2="1.524" layer="51"/>
<rectangle x1="-4.064" y1="-1.524" x2="-3.556" y2="-1.016" layer="51"/>
<rectangle x1="-1.524" y1="-1.524" x2="-1.016" y2="-1.016" layer="51"/>
<rectangle x1="1.016" y1="-1.524" x2="1.524" y2="-1.016" layer="51"/>
<rectangle x1="3.556" y1="1.016" x2="4.064" y2="1.524" layer="51"/>
<rectangle x1="3.556" y1="-1.524" x2="4.064" y2="-1.016" layer="51"/>
<rectangle x1="6.096" y1="1.016" x2="6.604" y2="1.524" layer="51"/>
<rectangle x1="6.096" y1="-1.524" x2="6.604" y2="-1.016" layer="51"/>
<rectangle x1="8.636" y1="1.016" x2="9.144" y2="1.524" layer="51"/>
<rectangle x1="8.636" y1="-1.524" x2="9.144" y2="-1.016" layer="51"/>
<rectangle x1="11.176" y1="1.016" x2="11.684" y2="1.524" layer="51"/>
<rectangle x1="11.176" y1="-1.524" x2="11.684" y2="-1.016" layer="51"/>
</package>
<package name="1X02" urn="urn:adsk.eagle:footprint:22309/1" library_version="3">
<description>&lt;b&gt;PIN HEADER&lt;/b&gt;</description>
<wire x1="-1.905" y1="1.27" x2="-0.635" y2="1.27" width="0.1524" layer="21"/>
<wire x1="-0.635" y1="1.27" x2="0" y2="0.635" width="0.1524" layer="21"/>
<wire x1="0" y1="0.635" x2="0" y2="-0.635" width="0.1524" layer="21"/>
<wire x1="0" y1="-0.635" x2="-0.635" y2="-1.27" width="0.1524" layer="21"/>
<wire x1="-2.54" y1="0.635" x2="-2.54" y2="-0.635" width="0.1524" layer="21"/>
<wire x1="-1.905" y1="1.27" x2="-2.54" y2="0.635" width="0.1524" layer="21"/>
<wire x1="-2.54" y1="-0.635" x2="-1.905" y2="-1.27" width="0.1524" layer="21"/>
<wire x1="-0.635" y1="-1.27" x2="-1.905" y2="-1.27" width="0.1524" layer="21"/>
<wire x1="0" y1="0.635" x2="0.635" y2="1.27" width="0.1524" layer="21"/>
<wire x1="0.635" y1="1.27" x2="1.905" y2="1.27" width="0.1524" layer="21"/>
<wire x1="1.905" y1="1.27" x2="2.54" y2="0.635" width="0.1524" layer="21"/>
<wire x1="2.54" y1="0.635" x2="2.54" y2="-0.635" width="0.1524" layer="21"/>
<wire x1="2.54" y1="-0.635" x2="1.905" y2="-1.27" width="0.1524" layer="21"/>
<wire x1="1.905" y1="-1.27" x2="0.635" y2="-1.27" width="0.1524" layer="21"/>
<wire x1="0.635" y1="-1.27" x2="0" y2="-0.635" width="0.1524" layer="21"/>
<pad name="1" x="-1.27" y="0" drill="1.016" shape="long" rot="R90"/>
<pad name="2" x="1.27" y="0" drill="1.016" shape="long" rot="R90"/>
<text x="-2.6162" y="1.8288" size="1.27" layer="25" ratio="10">&gt;NAME</text>
<text x="-2.54" y="-3.175" size="1.27" layer="27">&gt;VALUE</text>
<rectangle x1="-1.524" y1="-0.254" x2="-1.016" y2="0.254" layer="51"/>
<rectangle x1="1.016" y1="-0.254" x2="1.524" y2="0.254" layer="51"/>
</package>
<package name="1X03" urn="urn:adsk.eagle:footprint:22340/1" library_version="3">
<description>&lt;b&gt;PIN HEADER&lt;/b&gt;</description>
<wire x1="-3.175" y1="1.27" x2="-1.905" y2="1.27" width="0.1524" layer="21"/>
<wire x1="-1.905" y1="1.27" x2="-1.27" y2="0.635" width="0.1524" layer="21"/>
<wire x1="-1.27" y1="0.635" x2="-1.27" y2="-0.635" width="0.1524" layer="21"/>
<wire x1="-1.27" y1="-0.635" x2="-1.905" y2="-1.27" width="0.1524" layer="21"/>
<wire x1="-1.27" y1="0.635" x2="-0.635" y2="1.27" width="0.1524" layer="21"/>
<wire x1="-0.635" y1="1.27" x2="0.635" y2="1.27" width="0.1524" layer="21"/>
<wire x1="0.635" y1="1.27" x2="1.27" y2="0.635" width="0.1524" layer="21"/>
<wire x1="1.27" y1="0.635" x2="1.27" y2="-0.635" width="0.1524" layer="21"/>
<wire x1="1.27" y1="-0.635" x2="0.635" y2="-1.27" width="0.1524" layer="21"/>
<wire x1="0.635" y1="-1.27" x2="-0.635" y2="-1.27" width="0.1524" layer="21"/>
<wire x1="-0.635" y1="-1.27" x2="-1.27" y2="-0.635" width="0.1524" layer="21"/>
<wire x1="-3.81" y1="0.635" x2="-3.81" y2="-0.635" width="0.1524" layer="21"/>
<wire x1="-3.175" y1="1.27" x2="-3.81" y2="0.635" width="0.1524" layer="21"/>
<wire x1="-3.81" y1="-0.635" x2="-3.175" y2="-1.27" width="0.1524" layer="21"/>
<wire x1="-1.905" y1="-1.27" x2="-3.175" y2="-1.27" width="0.1524" layer="21"/>
<wire x1="1.27" y1="0.635" x2="1.905" y2="1.27" width="0.1524" layer="21"/>
<wire x1="1.905" y1="1.27" x2="3.175" y2="1.27" width="0.1524" layer="21"/>
<wire x1="3.175" y1="1.27" x2="3.81" y2="0.635" width="0.1524" layer="21"/>
<wire x1="3.81" y1="0.635" x2="3.81" y2="-0.635" width="0.1524" layer="21"/>
<wire x1="3.81" y1="-0.635" x2="3.175" y2="-1.27" width="0.1524" layer="21"/>
<wire x1="3.175" y1="-1.27" x2="1.905" y2="-1.27" width="0.1524" layer="21"/>
<wire x1="1.905" y1="-1.27" x2="1.27" y2="-0.635" width="0.1524" layer="21"/>
<pad name="1" x="-2.54" y="0" drill="1.016" shape="long" rot="R90"/>
<pad name="2" x="0" y="0" drill="1.016" shape="long" rot="R90"/>
<pad name="3" x="2.54" y="0" drill="1.016" shape="long" rot="R90"/>
<text x="-3.8862" y="1.8288" size="1.27" layer="25" ratio="10">&gt;NAME</text>
<text x="-3.81" y="-3.175" size="1.27" layer="27">&gt;VALUE</text>
<rectangle x1="-0.254" y1="-0.254" x2="0.254" y2="0.254" layer="51"/>
<rectangle x1="-2.794" y1="-0.254" x2="-2.286" y2="0.254" layer="51"/>
<rectangle x1="2.286" y1="-0.254" x2="2.794" y2="0.254" layer="51"/>
</package>
</packages>
<packages3d>
<package3d name="2X03" urn="urn:adsk.eagle:package:22462/2" type="model" library_version="3">
<description>PIN HEADER</description>
</package3d>
<package3d name="2X10" urn="urn:adsk.eagle:package:22405/2" type="model" library_version="3">
<description>PIN HEADER</description>
</package3d>
<package3d name="1X02" urn="urn:adsk.eagle:package:22435/2" type="model" library_version="3">
<description>PIN HEADER</description>
<packageinstances>
<packageinstance name="1X02"/>
</packageinstances>
</package3d>
<package3d name="1X03" urn="urn:adsk.eagle:package:22458/2" type="model" library_version="3">
<description>PIN HEADER</description>
<packageinstances>
<packageinstance name="1X03"/>
</packageinstances>
</package3d>
</packages3d>
</library>
<library name="transistor-small-signal" urn="urn:adsk.eagle:library:401">
<description>&lt;b&gt;Small Signal Transistors&lt;/b&gt;&lt;p&gt;
Packages from :&lt;br&gt;
www.infineon.com; &lt;br&gt;
www.semiconductors.com;&lt;br&gt;
www.irf.com&lt;p&gt;
&lt;author&gt;Created by librarian@cadsoft.de&lt;/author&gt;</description>
<packages>
<package name="SOT23" urn="urn:adsk.eagle:footprint:29641/1" library_version="1">
<description>&lt;b&gt;SOT-23&lt;/b&gt;</description>
<wire x1="1.4224" y1="0.6604" x2="1.4224" y2="-0.6604" width="0.1524" layer="51"/>
<wire x1="1.4224" y1="-0.6604" x2="-1.4224" y2="-0.6604" width="0.1524" layer="51"/>
<wire x1="-1.4224" y1="-0.6604" x2="-1.4224" y2="0.6604" width="0.1524" layer="51"/>
<wire x1="-1.4224" y1="0.6604" x2="1.4224" y2="0.6604" width="0.1524" layer="51"/>
<smd name="3" x="0" y="1.1" dx="1" dy="1.4" layer="1"/>
<smd name="2" x="0.95" y="-1.1" dx="1" dy="1.4" layer="1"/>
<smd name="1" x="-0.95" y="-1.1" dx="1" dy="1.4" layer="1"/>
<text x="-1.905" y="1.905" size="1.27" layer="25">&gt;NAME</text>
<text x="-1.905" y="-3.175" size="1.27" layer="27">&gt;VALUE</text>
<rectangle x1="-0.2286" y1="0.7112" x2="0.2286" y2="1.2954" layer="51"/>
<rectangle x1="0.7112" y1="-1.2954" x2="1.1684" y2="-0.7112" layer="51"/>
<rectangle x1="-1.1684" y1="-1.2954" x2="-0.7112" y2="-0.7112" layer="51"/>
</package>
</packages>
<packages3d>
<package3d name="SOT23" urn="urn:adsk.eagle:package:29752/1" type="box" library_version="1">
<description>SOT-23</description>
</package3d>
</packages3d>
</library>
<library name="ptc-ntc" urn="urn:adsk.eagle:library:332">
<description>&lt;b&gt;PTC and NTC Resistors&lt;/b&gt;&lt;p&gt;
Siemens, Philips, Valvo&lt;p&gt;
&lt;author&gt;Created by librarian@cadsoft.de&lt;/author&gt;</description>
<packages>
<package name="P642" urn="urn:adsk.eagle:footprint:22747/1" library_version="1">
<description>&lt;b&gt;PHILIPS/VALVO NTC&lt;/b&gt;</description>
<wire x1="-1.524" y1="-1.27" x2="1.524" y2="-1.27" width="0.1524" layer="21"/>
<wire x1="1.524" y1="1.27" x2="-1.524" y2="1.27" width="0.1524" layer="21"/>
<wire x1="-1.524" y1="-1.27" x2="-1.524" y2="1.27" width="0.1524" layer="21" curve="-180"/>
<wire x1="1.524" y1="-1.27" x2="1.524" y2="1.27" width="0.1524" layer="21" curve="180"/>
<wire x1="-1.27" y1="1.27" x2="1.289" y2="1.2556" width="0.1524" layer="21" curve="-74.108925"/>
<wire x1="-1.289" y1="-1.2556" x2="1.27" y2="-1.27" width="0.1524" layer="21" curve="74.108925"/>
<wire x1="-1.905" y1="-0.508" x2="1.905" y2="-0.508" width="0.1524" layer="51"/>
<wire x1="-1.905" y1="0.508" x2="1.905" y2="0.508" width="0.1524" layer="51"/>
<pad name="1" x="-1.27" y="0" drill="0.8128" shape="long" rot="R90"/>
<pad name="2" x="1.27" y="0" drill="0.8128" shape="long" rot="R90"/>
<text x="-2.286" y="2.032" size="1.27" layer="25" ratio="10">&gt;NAME</text>
<text x="-2.54" y="-3.429" size="1.27" layer="27" ratio="10">&gt;VALUE</text>
</package>
</packages>
<packages3d>
<package3d name="P642" urn="urn:adsk.eagle:package:22762/1" type="box" library_version="1">
<description>PHILIPS/VALVO NTC</description>
</package3d>
</packages3d>
</library>
<library name="BMS">
<packages>
<package name="BATTERY-HOLDER-QUAD">
<wire x1="0" y1="0" x2="0" y2="20" width="0.127" layer="21"/>
<wire x1="0" y1="20" x2="0" y2="39" width="0.127" layer="21"/>
<wire x1="0" y1="39" x2="0" y2="59" width="0.127" layer="21"/>
<wire x1="0" y1="59" x2="0" y2="78.74" width="0.127" layer="21"/>
<wire x1="0" y1="0" x2="77.98" y2="0" width="0.127" layer="21"/>
<wire x1="77.98" y1="78.84" x2="77.98" y2="0.1" width="0.127" layer="21"/>
<wire x1="77.98" y1="78.84" x2="0" y2="78.84" width="0.127" layer="21"/>
<wire x1="0" y1="20" x2="78" y2="20" width="0.127" layer="21"/>
<wire x1="0" y1="39" x2="78" y2="39" width="0.127" layer="21"/>
<wire x1="0" y1="59" x2="78" y2="59" width="0.127" layer="21"/>
<pad name="P$9" x="2.5" y="10.35" drill="1.8" shape="long"/>
<pad name="P$10" x="2.5" y="29.65" drill="1.8" shape="long"/>
<pad name="P$11" x="2.5" y="48.95" drill="1.8" shape="long"/>
<pad name="P$12" x="2.5" y="68.25" drill="1.8" shape="long"/>
<pad name="P$13" x="75.4" y="10.35" drill="1.9" shape="long"/>
<pad name="P$14" x="75.4" y="29.65" drill="1.8" shape="long"/>
<pad name="P$15" x="75.4" y="48.95" drill="1.8" shape="long"/>
<pad name="P$16" x="75.4" y="68.25" drill="1.8" shape="long"/>
<hole x="11.22" y="10.31" drill="3.2"/>
<hole x="66.83" y="10.31" drill="3.2"/>
<hole x="11.22" y="29.61" drill="3.2"/>
<hole x="66.83" y="29.61" drill="3.2"/>
<hole x="11.22" y="48.91" drill="3.2"/>
<hole x="66.83" y="48.91" drill="3.2"/>
<hole x="11.22" y="68.21" drill="3.2"/>
<hole x="66.83" y="68.21" drill="3.2"/>
<text x="-0.3" y="-6.2" size="3.81" layer="21">+</text>
<text x="76.2" y="-7.4" size="3.81" layer="21">-</text>
</package>
<package name="5569MOLEX-8X2">
<pad name="P$1" x="0" y="0" drill="1.8" shape="square"/>
<pad name="P$2" x="4.2" y="0" drill="1.8" shape="square"/>
<pad name="P$3" x="8.4" y="0" drill="1.8" shape="square"/>
<pad name="P$4" x="12.6" y="0" drill="1.8" shape="square"/>
<pad name="P$5" x="16.8" y="0" drill="1.8" shape="square"/>
<pad name="P$6" x="21" y="0" drill="1.8" shape="square"/>
<pad name="P$7" x="25.2" y="0" drill="1.8" shape="square"/>
<pad name="P$8" x="29.4" y="0" drill="1.8" shape="square"/>
<pad name="P$9" x="29.4" y="5.5" drill="1.8" shape="square"/>
<pad name="P$10" x="25.2" y="5.5" drill="1.8" shape="square"/>
<pad name="P$11" x="21" y="5.5" drill="1.8" shape="square"/>
<pad name="P$12" x="16.8" y="5.5" drill="1.8" shape="square"/>
<pad name="P$13" x="12.6" y="5.5" drill="1.8" shape="square"/>
<pad name="P$14" x="8.4" y="5.5" drill="1.8" shape="square"/>
<pad name="P$15" x="4.2" y="5.5" drill="1.8" shape="square"/>
<pad name="P$16" x="0" y="5.5" drill="1.8" shape="square"/>
</package>
<package name="2410">
<smd name="P$1" x="-1.27" y="0" dx="3.175" dy="2.54" layer="1" rot="R90"/>
<smd name="P$2" x="4.318" y="0" dx="3.175" dy="2.54" layer="1" rot="R90"/>
<wire x1="0" y1="-1.524" x2="3.048" y2="-1.524" width="0.127" layer="21"/>
<wire x1="0" y1="1.524" x2="3.048" y2="1.524" width="0.127" layer="21"/>
</package>
<package name="328P">
<wire x1="0" y1="0" x2="7" y2="0" width="0.127" layer="21"/>
<wire x1="7" y1="0" x2="7" y2="7" width="0.127" layer="21"/>
<wire x1="7" y1="7" x2="0" y2="7" width="0.127" layer="21"/>
<wire x1="0" y1="7" x2="0" y2="0" width="0.127" layer="21"/>
<circle x="0.4" y="6.6" radius="0.14141875" width="0.127" layer="21"/>
<text x="1.6" y="3.1" size="1.27" layer="21">328P</text>
<smd name="P$1" x="-1.2" y="6.3" dx="2" dy="0.5" layer="1"/>
<smd name="P$2" x="-1.2" y="5.5" dx="2" dy="0.5" layer="1"/>
<smd name="P$3" x="-1.2" y="4.7" dx="2" dy="0.5" layer="1"/>
<smd name="P$4" x="-1.2" y="3.9" dx="2" dy="0.5" layer="1"/>
<smd name="P$5" x="-1.2" y="3.1" dx="2" dy="0.5" layer="1"/>
<smd name="P$6" x="-1.2" y="2.3" dx="2" dy="0.5" layer="1"/>
<smd name="P$7" x="-1.2" y="1.5" dx="2" dy="0.5" layer="1"/>
<smd name="P$8" x="-1.2" y="0.7" dx="2" dy="0.5" layer="1"/>
<smd name="P$9" x="0.7" y="-1.2" dx="2" dy="0.5" layer="1" rot="R90"/>
<smd name="P$10" x="1.5" y="-1.2" dx="2" dy="0.5" layer="1" rot="R90"/>
<smd name="P$11" x="2.3" y="-1.2" dx="2" dy="0.5" layer="1" rot="R90"/>
<smd name="P$12" x="3.1" y="-1.2" dx="2" dy="0.5" layer="1" rot="R90"/>
<smd name="P$13" x="3.9" y="-1.2" dx="2" dy="0.5" layer="1" rot="R90"/>
<smd name="P$14" x="4.7" y="-1.2" dx="2" dy="0.5" layer="1" rot="R90"/>
<smd name="P$15" x="5.5" y="-1.2" dx="2" dy="0.5" layer="1" rot="R90"/>
<smd name="P$16" x="6.3" y="-1.2" dx="2" dy="0.5" layer="1" rot="R90"/>
<smd name="P$17" x="8.2" y="0.7" dx="2" dy="0.5" layer="1" rot="R180"/>
<smd name="P$18" x="8.2" y="1.5" dx="2" dy="0.5" layer="1" rot="R180"/>
<smd name="P$19" x="8.2" y="2.3" dx="2" dy="0.5" layer="1" rot="R180"/>
<smd name="P$20" x="8.2" y="3.1" dx="2" dy="0.5" layer="1" rot="R180"/>
<smd name="P$21" x="8.2" y="3.9" dx="2" dy="0.5" layer="1" rot="R180"/>
<smd name="P$22" x="8.2" y="4.7" dx="2" dy="0.5" layer="1" rot="R180"/>
<smd name="P$23" x="8.2" y="5.5" dx="2" dy="0.5" layer="1" rot="R180"/>
<smd name="P$24" x="8.2" y="6.3" dx="2" dy="0.5" layer="1" rot="R180"/>
<smd name="P$25" x="6.3" y="8.2" dx="2" dy="0.5" layer="1" rot="R270"/>
<smd name="P$26" x="5.5" y="8.2" dx="2" dy="0.5" layer="1" rot="R270"/>
<smd name="P$27" x="4.7" y="8.2" dx="2" dy="0.5" layer="1" rot="R270"/>
<smd name="P$28" x="3.9" y="8.2" dx="2" dy="0.5" layer="1" rot="R270"/>
<smd name="P$29" x="3.1" y="8.2" dx="2" dy="0.5" layer="1" rot="R270"/>
<smd name="P$30" x="2.3" y="8.2" dx="2" dy="0.5" layer="1" rot="R270"/>
<smd name="P$31" x="1.5" y="8.2" dx="2" dy="0.5" layer="1" rot="R270"/>
<smd name="P$32" x="0.7" y="8.2" dx="2" dy="0.5" layer="1" rot="R270"/>
</package>
<package name="SOT23" urn="urn:adsk.eagle:footprint:15704/1">
<description>&lt;b&gt;SOT-23&lt;/b&gt;</description>
<wire x1="1.4224" y1="0.6604" x2="1.4224" y2="-0.6604" width="0.1524" layer="51"/>
<wire x1="1.4224" y1="-0.6604" x2="-1.4224" y2="-0.6604" width="0.1524" layer="51"/>
<wire x1="-1.4224" y1="-0.6604" x2="-1.4224" y2="0.6604" width="0.1524" layer="51"/>
<wire x1="-1.4224" y1="0.6604" x2="1.4224" y2="0.6604" width="0.1524" layer="51"/>
<smd name="3" x="0" y="1.1" dx="1" dy="1.4" layer="1"/>
<smd name="2" x="0.95" y="-1.1" dx="1" dy="1.4" layer="1"/>
<smd name="1" x="-0.95" y="-1.1" dx="1" dy="1.4" layer="1"/>
<text x="-1.905" y="1.905" size="1.27" layer="25">&gt;NAME</text>
<text x="-1.905" y="-3.175" size="1.27" layer="27">&gt;VALUE</text>
<rectangle x1="-0.2286" y1="0.7112" x2="0.2286" y2="1.2954" layer="51"/>
<rectangle x1="0.7112" y1="-1.2954" x2="1.1684" y2="-0.7112" layer="51"/>
<rectangle x1="-1.1684" y1="-1.2954" x2="-0.7112" y2="-0.7112" layer="51"/>
</package>
</packages>
</library>
</libraries>
<attributes>
</attributes>
<variantdefs>
</variantdefs>
<classes>
<class number="0" name="default" width="0" drill="0">
</class>
</classes>
<designrules name="default">
<description language="de">&lt;b&gt;EAGLE Design Rules&lt;/b&gt;
&lt;p&gt;
Die Standard-Design-Rules sind so gewählt, dass sie für 
die meisten Anwendungen passen. Sollte ihre Platine 
besondere Anforderungen haben, treffen Sie die erforderlichen
Einstellungen hier und speichern die Design Rules unter 
einem neuen Namen ab.</description>
<description language="en">&lt;b&gt;EAGLE Design Rules&lt;/b&gt;
&lt;p&gt;
The default Design Rules have been set to cover
a wide range of applications. Your particular design
may have different requirements, so please make the
necessary adjustments and save your customized
design rules under a new name.</description>
<param name="layerSetup" value="(1*16)"/>
<param name="mtCopper" value="0.035mm 0.035mm 0.035mm 0.035mm 0.035mm 0.035mm 0.035mm 0.035mm 0.035mm 0.035mm 0.035mm 0.035mm 0.035mm 0.035mm 0.035mm 0.035mm"/>
<param name="mtIsolate" value="1.5mm 0.15mm 0.2mm 0.15mm 0.2mm 0.15mm 0.2mm 0.15mm 0.2mm 0.15mm 0.2mm 0.15mm 0.2mm 0.15mm 0.2mm"/>
<param name="mdWireWire" value="6mil"/>
<param name="mdWirePad" value="6mil"/>
<param name="mdWireVia" value="6mil"/>
<param name="mdPadPad" value="6mil"/>
<param name="mdPadVia" value="6mil"/>
<param name="mdViaVia" value="6mil"/>
<param name="mdSmdPad" value="6mil"/>
<param name="mdSmdVia" value="6mil"/>
<param name="mdSmdSmd" value="6mil"/>
<param name="mdViaViaSameLayer" value="6mil"/>
<param name="mnLayersViaInSmd" value="2"/>
<param name="mdCopperDimension" value="40mil"/>
<param name="mdDrill" value="6mil"/>
<param name="mdSmdStop" value="0mil"/>
<param name="msWidth" value="6mil"/>
<param name="msDrill" value="0.35mm"/>
<param name="msMicroVia" value="9.99mm"/>
<param name="msBlindViaRatio" value="0.5"/>
<param name="rvPadTop" value="0.25"/>
<param name="rvPadInner" value="0.25"/>
<param name="rvPadBottom" value="0.25"/>
<param name="rvViaOuter" value="0.25"/>
<param name="rvViaInner" value="0.25"/>
<param name="rvMicroViaOuter" value="0.25"/>
<param name="rvMicroViaInner" value="0.25"/>
<param name="rlMinPadTop" value="10mil"/>
<param name="rlMaxPadTop" value="20mil"/>
<param name="rlMinPadInner" value="10mil"/>
<param name="rlMaxPadInner" value="20mil"/>
<param name="rlMinPadBottom" value="10mil"/>
<param name="rlMaxPadBottom" value="20mil"/>
<param name="rlMinViaOuter" value="8mil"/>
<param name="rlMaxViaOuter" value="20mil"/>
<param name="rlMinViaInner" value="8mil"/>
<param name="rlMaxViaInner" value="20mil"/>
<param name="rlMinMicroViaOuter" value="4mil"/>
<param name="rlMaxMicroViaOuter" value="20mil"/>
<param name="rlMinMicroViaInner" value="4mil"/>
<param name="rlMaxMicroViaInner" value="20mil"/>
<param name="psTop" value="-1"/>
<param name="psBottom" value="-1"/>
<param name="psFirst" value="-1"/>
<param name="psElongationLong" value="100"/>
<param name="psElongationOffset" value="100"/>
<param name="mvStopFrame" value="1"/>
<param name="mvCreamFrame" value="0"/>
<param name="mlMinStopFrame" value="4mil"/>
<param name="mlMaxStopFrame" value="4mil"/>
<param name="mlMinCreamFrame" value="0mil"/>
<param name="mlMaxCreamFrame" value="0mil"/>
<param name="mlViaStopLimit" value="0mil"/>
<param name="srRoundness" value="0"/>
<param name="srMinRoundness" value="0mil"/>
<param name="srMaxRoundness" value="0mil"/>
<param name="slThermalIsolate" value="10mil"/>
<param name="slThermalsForVias" value="0"/>
<param name="dpMaxLengthDifference" value="10mm"/>
<param name="dpGapFactor" value="2.5"/>
<param name="checkAngle" value="0"/>
<param name="checkFont" value="1"/>
<param name="checkRestrict" value="1"/>
<param name="checkStop" value="0"/>
<param name="checkValues" value="0"/>
<param name="checkNames" value="1"/>
<param name="checkWireStubs" value="1"/>
<param name="checkPolygonWidth" value="0"/>
<param name="useDiameter" value="13"/>
<param name="maxErrors" value="50"/>
</designrules>
<autorouter>
<pass name="Default">
<param name="RoutingGrid" value="50mil"/>
<param name="AutoGrid" value="1"/>
<param name="Efforts" value="0"/>
<param name="TopRouterVariant" value="1"/>
<param name="tpViaShape" value="round"/>
<param name="PrefDir.1" value="a"/>
<param name="PrefDir.2" value="0"/>
<param name="PrefDir.3" value="0"/>
<param name="PrefDir.4" value="0"/>
<param name="PrefDir.5" value="0"/>
<param name="PrefDir.6" value="0"/>
<param name="PrefDir.7" value="0"/>
<param name="PrefDir.8" value="0"/>
<param name="PrefDir.9" value="0"/>
<param name="PrefDir.10" value="0"/>
<param name="PrefDir.11" value="0"/>
<param name="PrefDir.12" value="0"/>
<param name="PrefDir.13" value="0"/>
<param name="PrefDir.14" value="0"/>
<param name="PrefDir.15" value="0"/>
<param name="PrefDir.16" value="a"/>
<param name="cfVia" value="8"/>
<param name="cfNonPref" value="5"/>
<param name="cfChangeDir" value="2"/>
<param name="cfOrthStep" value="2"/>
<param name="cfDiagStep" value="3"/>
<param name="cfExtdStep" value="0"/>
<param name="cfBonusStep" value="1"/>
<param name="cfMalusStep" value="1"/>
<param name="cfPadImpact" value="4"/>
<param name="cfSmdImpact" value="4"/>
<param name="cfBusImpact" value="0"/>
<param name="cfHugging" value="3"/>
<param name="cfAvoid" value="4"/>
<param name="cfPolygon" value="10"/>
<param name="cfBase.1" value="0"/>
<param name="cfBase.2" value="1"/>
<param name="cfBase.3" value="1"/>
<param name="cfBase.4" value="1"/>
<param name="cfBase.5" value="1"/>
<param name="cfBase.6" value="1"/>
<param name="cfBase.7" value="1"/>
<param name="cfBase.8" value="1"/>
<param name="cfBase.9" value="1"/>
<param name="cfBase.10" value="1"/>
<param name="cfBase.11" value="1"/>
<param name="cfBase.12" value="1"/>
<param name="cfBase.13" value="1"/>
<param name="cfBase.14" value="1"/>
<param name="cfBase.15" value="1"/>
<param name="cfBase.16" value="0"/>
<param name="mnVias" value="20"/>
<param name="mnSegments" value="9999"/>
<param name="mnExtdSteps" value="9999"/>
<param name="mnRipupLevel" value="10"/>
<param name="mnRipupSteps" value="100"/>
<param name="mnRipupTotal" value="100"/>
</pass>
<pass name="Follow-me" refer="Default" active="yes">
</pass>
<pass name="Busses" refer="Default" active="yes">
<param name="cfNonPref" value="4"/>
<param name="cfBusImpact" value="4"/>
<param name="cfHugging" value="0"/>
<param name="mnVias" value="0"/>
</pass>
<pass name="Route" refer="Default" active="yes">
</pass>
<pass name="Optimize1" refer="Default" active="yes">
<param name="cfVia" value="99"/>
<param name="cfExtdStep" value="10"/>
<param name="cfHugging" value="1"/>
<param name="mnExtdSteps" value="1"/>
<param name="mnRipupLevel" value="0"/>
</pass>
<pass name="Optimize2" refer="Optimize1" active="yes">
<param name="cfNonPref" value="0"/>
<param name="cfChangeDir" value="6"/>
<param name="cfExtdStep" value="0"/>
<param name="cfBonusStep" value="2"/>
<param name="cfMalusStep" value="2"/>
<param name="cfPadImpact" value="2"/>
<param name="cfSmdImpact" value="2"/>
<param name="cfHugging" value="0"/>
</pass>
<pass name="Optimize3" refer="Optimize2" active="yes">
<param name="cfChangeDir" value="8"/>
<param name="cfPadImpact" value="0"/>
<param name="cfSmdImpact" value="0"/>
</pass>
<pass name="Optimize4" refer="Optimize3" active="yes">
<param name="cfChangeDir" value="25"/>
</pass>
</autorouter>
<elements>
<element name="C1" library="eagle-ltspice" library_urn="urn:adsk.eagle:library:217" package="C1206" package3d_urn="urn:adsk.eagle:package:13279/1" value="" x="49.53" y="33.02">
<attribute name="SPICEMODEL" value="NONE" x="49.53" y="33.02" size="1.778" layer="27" display="off"/>
<attribute name="SPICEPREFIX" value="C" x="49.53" y="33.02" size="1.778" layer="27" display="off"/>
</element>
<element name="C10" library="eagle-ltspice" library_urn="urn:adsk.eagle:library:217" package="C1206" package3d_urn="urn:adsk.eagle:package:13279/1" value="1uF" x="48.26" y="64.77" rot="R270">
<attribute name="SPICEMODEL" value="NONE" x="48.26" y="64.77" size="1.778" layer="27" rot="R270" display="off"/>
<attribute name="SPICEPREFIX" value="C" x="48.26" y="64.77" size="1.778" layer="27" rot="R270" display="off"/>
</element>
<element name="C11" library="eagle-ltspice" library_urn="urn:adsk.eagle:library:217" package="C1206" package3d_urn="urn:adsk.eagle:package:13279/1" value="1uF" x="44.45" y="64.77" rot="R270">
<attribute name="SPICEMODEL" value="NONE" x="44.45" y="64.77" size="1.778" layer="27" rot="R270" display="off"/>
<attribute name="SPICEPREFIX" value="C" x="44.45" y="64.77" size="1.778" layer="27" rot="R270" display="off"/>
</element>
<element name="C12" library="eagle-ltspice" library_urn="urn:adsk.eagle:library:217" package="C1206" package3d_urn="urn:adsk.eagle:package:13279/1" value="1uF" x="69.85" y="48.26" rot="R180">
<attribute name="SPICEMODEL" value="NONE" x="69.85" y="48.26" size="1.778" layer="27" rot="R180" display="off"/>
<attribute name="SPICEPREFIX" value="C" x="69.85" y="48.26" size="1.778" layer="27" rot="R180" display="off"/>
</element>
<element name="C13" library="eagle-ltspice" library_urn="urn:adsk.eagle:library:217" package="C1206" package3d_urn="urn:adsk.eagle:package:13279/1" value="22uF" x="52.07" y="55.88" rot="R90">
<attribute name="SPICEMODEL" value="NONE" x="52.07" y="55.88" size="1.778" layer="27" rot="R90" display="off"/>
<attribute name="SPICEPREFIX" value="C" x="52.07" y="55.88" size="1.778" layer="27" rot="R90" display="off"/>
</element>
<element name="C14" library="eagle-ltspice" library_urn="urn:adsk.eagle:library:217" package="C1206" package3d_urn="urn:adsk.eagle:package:13279/1" value="22uF" x="54.61" y="55.88" rot="R270">
<attribute name="SPICEMODEL" value="NONE" x="54.61" y="55.88" size="1.778" layer="27" rot="R270" display="off"/>
<attribute name="SPICEPREFIX" value="C" x="54.61" y="55.88" size="1.778" layer="27" rot="R270" display="off"/>
</element>
<element name="C15" library="eagle-ltspice" library_urn="urn:adsk.eagle:library:217" package="C1206" package3d_urn="urn:adsk.eagle:package:13279/1" value="0.1uF" x="41.91" y="49.53" rot="R90">
<attribute name="SPICEMODEL" value="NONE" x="41.91" y="49.53" size="1.778" layer="27" rot="R90" display="off"/>
<attribute name="SPICEPREFIX" value="C" x="41.91" y="49.53" size="1.778" layer="27" rot="R90" display="off"/>
</element>
<element name="C16" library="eagle-ltspice" library_urn="urn:adsk.eagle:library:217" package="C1206" package3d_urn="urn:adsk.eagle:package:13279/1" value="0.1uF" x="39.37" y="44.45" rot="R270">
<attribute name="SPICEMODEL" value="NONE" x="39.37" y="44.45" size="1.778" layer="27" rot="R270" display="off"/>
<attribute name="SPICEPREFIX" value="C" x="39.37" y="44.45" size="1.778" layer="27" rot="R270" display="off"/>
</element>
<element name="C2" library="eagle-ltspice" library_urn="urn:adsk.eagle:library:217" package="C1206" package3d_urn="urn:adsk.eagle:package:13279/1" value="" x="49.53" y="35.56">
<attribute name="SPICEMODEL" value="NONE" x="49.53" y="35.56" size="1.778" layer="27" display="off"/>
<attribute name="SPICEPREFIX" value="C" x="49.53" y="35.56" size="1.778" layer="27" display="off"/>
</element>
<element name="D4" library="diode" library_urn="urn:adsk.eagle:library:210" package="DO-214AC" package3d_urn="urn:adsk.eagle:package:43416/2" value="" x="12.7" y="50.165" rot="R180"/>
<element name="JP1" library="pinhead" library_urn="urn:adsk.eagle:library:325" package="2X03" package3d_urn="urn:adsk.eagle:package:22462/2" value="" x="38.735" y="94.615" rot="MR0"/>
<element name="JP2" library="pinhead" library_urn="urn:adsk.eagle:library:325" package="2X10" package3d_urn="urn:adsk.eagle:package:22405/2" value="" x="5" y="50" rot="R90"/>
<element name="JP3" library="pinhead" library_urn="urn:adsk.eagle:library:325" package="2X10" package3d_urn="urn:adsk.eagle:package:22405/2" value="" x="95" y="50" rot="R90"/>
<element name="JP4" library="pinhead" library_urn="urn:adsk.eagle:library:325" package="1X02" package3d_urn="urn:adsk.eagle:package:22435/2" value="" x="28.575" y="94.615" rot="R90"/>
<element name="Q2" library="transistor-small-signal" library_urn="urn:adsk.eagle:library:401" package="SOT23" package3d_urn="urn:adsk.eagle:package:29752/1" value="BSS123" x="48.26" y="58.42" rot="R180"/>
<element name="Q3" library="transistor-small-signal" library_urn="urn:adsk.eagle:library:401" package="SOT23" package3d_urn="urn:adsk.eagle:package:29752/1" value="BSS123" x="44.45" y="58.42" rot="R180"/>
<element name="Q4" library="transistor-small-signal" library_urn="urn:adsk.eagle:library:401" package="SOT23" package3d_urn="urn:adsk.eagle:package:29752/1" value="BSS123" x="63.5" y="48.26" rot="R90"/>
<element name="Q6" library="transistor-small-signal" library_urn="urn:adsk.eagle:library:401" package="SOT23" package3d_urn="urn:adsk.eagle:package:29752/1" value="BSS123" x="59.69" y="40.64" rot="R270"/>
<element name="R15" library="eagle-ltspice" library_urn="urn:adsk.eagle:library:217" package="R1206" package3d_urn="urn:adsk.eagle:package:13301/1" value="10kΩ" x="54.61" y="63.5" rot="R180">
<attribute name="SPICEMODEL" value="NONE" x="54.61" y="63.5" size="1.778" layer="27" rot="R180" display="off"/>
<attribute name="SPICEPREFIX" value="R" x="54.61" y="63.5" size="1.778" layer="27" rot="R180" display="off"/>
</element>
<element name="R16" library="eagle-ltspice" library_urn="urn:adsk.eagle:library:217" package="R1206" package3d_urn="urn:adsk.eagle:package:13301/1" value="100Ω" x="58.42" y="54.61">
<attribute name="SPICEMODEL" value="NONE" x="58.42" y="54.61" size="1.778" layer="27" display="off"/>
<attribute name="SPICEPREFIX" value="R" x="58.42" y="54.61" size="1.778" layer="27" display="off"/>
</element>
<element name="R17" library="eagle-ltspice" library_urn="urn:adsk.eagle:library:217" package="R0603" package3d_urn="urn:adsk.eagle:package:13302/1" value="90.9kΩ" x="36.83" y="49.53" rot="R270">
<attribute name="SPICEMODEL" value="NONE" x="36.83" y="49.53" size="1.778" layer="27" rot="R270" display="off"/>
<attribute name="SPICEPREFIX" value="R" x="36.83" y="49.53" size="1.778" layer="27" rot="R270" display="off"/>
</element>
<element name="R22" library="eagle-ltspice" library_urn="urn:adsk.eagle:library:217" package="R0603" package3d_urn="urn:adsk.eagle:package:13302/1" value="1.69kΩ" x="49.53" y="55.88" rot="R180">
<attribute name="SPICEMODEL" value="NONE" x="49.53" y="55.88" size="1.778" layer="27" rot="R180" display="off"/>
<attribute name="SPICEPREFIX" value="R" x="49.53" y="55.88" size="1.778" layer="27" rot="R180" display="off"/>
</element>
<element name="R23" library="eagle-ltspice" library_urn="urn:adsk.eagle:library:217" package="R0603" package3d_urn="urn:adsk.eagle:package:13302/1" value="1.69kΩ" x="48.26" y="60.96" rot="R180">
<attribute name="SPICEMODEL" value="NONE" x="48.26" y="60.96" size="1.778" layer="27" rot="R180" display="off"/>
<attribute name="SPICEPREFIX" value="R" x="48.26" y="60.96" size="1.778" layer="27" rot="R180" display="off"/>
</element>
<element name="R24" library="eagle-ltspice" library_urn="urn:adsk.eagle:library:217" package="R0603" package3d_urn="urn:adsk.eagle:package:13302/1" value="1.69kΩ" x="45.72" y="55.88" rot="R180">
<attribute name="SPICEMODEL" value="NONE" x="45.72" y="55.88" size="1.778" layer="27" rot="R180" display="off"/>
<attribute name="SPICEPREFIX" value="R" x="45.72" y="55.88" size="1.778" layer="27" rot="R180" display="off"/>
</element>
<element name="R25" library="eagle-ltspice" library_urn="urn:adsk.eagle:library:217" package="R0603" package3d_urn="urn:adsk.eagle:package:13302/1" value="1.69kΩ" x="44.45" y="60.96" rot="R180">
<attribute name="SPICEMODEL" value="NONE" x="44.45" y="60.96" size="1.778" layer="27" rot="R180" display="off"/>
<attribute name="SPICEPREFIX" value="R" x="44.45" y="60.96" size="1.778" layer="27" rot="R180" display="off"/>
</element>
<element name="R26" library="eagle-ltspice" library_urn="urn:adsk.eagle:library:217" package="R0603" package3d_urn="urn:adsk.eagle:package:13302/1" value="1.69kΩ" x="60.96" y="46.99" rot="R90">
<attribute name="SPICEMODEL" value="NONE" x="60.96" y="46.99" size="1.778" layer="27" rot="R90" display="off"/>
<attribute name="SPICEPREFIX" value="R" x="60.96" y="46.99" size="1.778" layer="27" rot="R90" display="off"/>
</element>
<element name="R27" library="eagle-ltspice" library_urn="urn:adsk.eagle:library:217" package="R0603" package3d_urn="urn:adsk.eagle:package:13302/1" value="1.69kΩ" x="66.04" y="48.26" rot="R90">
<attribute name="SPICEMODEL" value="NONE" x="66.04" y="48.26" size="1.778" layer="27" rot="R90" display="off"/>
<attribute name="SPICEPREFIX" value="R" x="66.04" y="48.26" size="1.778" layer="27" rot="R90" display="off"/>
</element>
<element name="R28" library="eagle-ltspice" library_urn="urn:adsk.eagle:library:217" package="R0603" package3d_urn="urn:adsk.eagle:package:13302/1" value="75kΩ" x="39.37" y="49.53" rot="R90">
<attribute name="SPICEMODEL" value="NONE" x="39.37" y="49.53" size="1.778" layer="27" rot="R90" display="off"/>
<attribute name="SPICEPREFIX" value="R" x="39.37" y="49.53" size="1.778" layer="27" rot="R90" display="off"/>
</element>
<element name="R29" library="ptc-ntc" library_urn="urn:adsk.eagle:library:332" package="P642" package3d_urn="urn:adsk.eagle:package:22762/1" value="" x="35.56" y="44.45" rot="R90">
<attribute name="MF" value="" x="35.56" y="44.45" size="1.778" layer="27" rot="R90" display="off"/>
<attribute name="MPN" value="" x="35.56" y="44.45" size="1.778" layer="27" rot="R90" display="off"/>
<attribute name="OC_FARNELL" value="unknown" x="35.56" y="44.45" size="1.778" layer="27" rot="R90" display="off"/>
<attribute name="OC_NEWARK" value="unknown" x="35.56" y="44.45" size="1.778" layer="27" rot="R90" display="off"/>
</element>
<element name="R30" library="eagle-ltspice" library_urn="urn:adsk.eagle:library:217" package="R1206" package3d_urn="urn:adsk.eagle:package:13301/1" value="100kΩ" x="32.385" y="44.45" rot="R270">
<attribute name="SPICEMODEL" value="NONE" x="32.385" y="44.45" size="1.778" layer="27" rot="R270" display="off"/>
<attribute name="SPICEPREFIX" value="R" x="32.385" y="44.45" size="1.778" layer="27" rot="R270" display="off"/>
</element>
<element name="R31" library="eagle-ltspice" library_urn="urn:adsk.eagle:library:217" package="R1206" package3d_urn="urn:adsk.eagle:package:13301/1" value="100Ω" x="64.77" y="40.64" rot="R180">
<attribute name="SPICEMODEL" value="NONE" x="64.77" y="40.64" size="1.778" layer="27" rot="R180" display="off"/>
<attribute name="SPICEPREFIX" value="R" x="64.77" y="40.64" size="1.778" layer="27" rot="R180" display="off"/>
</element>
<element name="R32" library="eagle-ltspice" library_urn="urn:adsk.eagle:library:217" package="R1206" package3d_urn="urn:adsk.eagle:package:13301/1" value="100Ω" x="64.77" y="38.1" rot="R180">
<attribute name="SPICEMODEL" value="NONE" x="64.77" y="38.1" size="1.778" layer="27" rot="R180" display="off"/>
<attribute name="SPICEPREFIX" value="R" x="64.77" y="38.1" size="1.778" layer="27" rot="R180" display="off"/>
</element>
<element name="R33" library="eagle-ltspice" library_urn="urn:adsk.eagle:library:217" package="R1206" package3d_urn="urn:adsk.eagle:package:13301/1" value="10kΩ" x="40.64" y="58.42" rot="R90">
<attribute name="SPICEMODEL" value="NONE" x="40.64" y="58.42" size="1.778" layer="27" rot="R90" display="off"/>
<attribute name="SPICEPREFIX" value="R" x="40.64" y="58.42" size="1.778" layer="27" rot="R90" display="off"/>
</element>
<element name="U$1" library="BMS" package="BATTERY-HOLDER-QUAD" value="BATTERYQUAD" x="11.43" y="89.535" rot="MR180"/>
<element name="U$11" library="BMS" package="5569MOLEX-8X2" value="MOLEX5569-8X2" x="85.09" y="97.155" rot="R180"/>
<element name="U$12" library="BMS" package="5569MOLEX-8X2" value="MOLEX5569-8X2" x="14.605" y="2.54"/>
<element name="U$2" library="BMS" package="2410" value="" x="14.605" y="75.565" rot="R180"/>
<element name="U$3" library="BMS" package="2410" value="" x="14.605" y="55.88" rot="R180"/>
<element name="U$4" library="BMS" package="2410" value="" x="14.605" y="36.83" rot="R180"/>
<element name="U$5" library="BMS" package="2410" value="" x="14.605" y="17.78" rot="R180"/>
<element name="U$7" library="BMS" package="328P" value="328P" x="53.34" y="41.91" rot="R90"/>
<element name="U$8" library="BMS" package="SOT23" value="LM4040" x="53.34" y="60.96" rot="R270"/>
<element name="JP5" library="pinhead" library_urn="urn:adsk.eagle:library:325" package="1X03" package3d_urn="urn:adsk.eagle:package:22458/2" value="" x="41.275" y="30.48" rot="R180"/>
<element name="JP6" library="pinhead" library_urn="urn:adsk.eagle:library:325" package="1X03" package3d_urn="urn:adsk.eagle:package:22458/2" value="" x="59.055" y="30.48" rot="R180"/>
</elements>
<signals>
<signal name="BATTERY4+">
<contactref element="U$1" pad="P$9"/>
<contactref element="U$2" pad="P$1"/>
<wire x1="13.93" y1="79.185" x2="15.875" y2="77.24" width="2.54" layer="1"/>
<wire x1="15.875" y1="77.24" x2="15.875" y2="75.565" width="2.54" layer="1"/>
</signal>
<signal name="BATTERY3+">
<contactref element="U$1" pad="P$10"/>
<contactref element="U$3" pad="P$1"/>
<wire x1="13.93" y1="59.885" x2="15.875" y2="57.94" width="2.54" layer="1"/>
<wire x1="15.875" y1="57.94" x2="15.875" y2="55.88" width="2.54" layer="1"/>
</signal>
<signal name="BATTERY2+">
<contactref element="U$1" pad="P$11"/>
<contactref element="U$4" pad="P$1"/>
<wire x1="13.93" y1="40.585" x2="15.875" y2="38.64" width="2.54" layer="1"/>
<wire x1="15.875" y1="38.64" x2="15.875" y2="36.83" width="2.54" layer="1"/>
</signal>
<signal name="BATTERY1+">
<contactref element="U$1" pad="P$12"/>
<contactref element="U$5" pad="P$1"/>
<wire x1="13.93" y1="21.285" x2="15.875" y2="19.34" width="2.54" layer="1"/>
<wire x1="15.875" y1="19.34" x2="15.875" y2="17.78" width="2.54" layer="1"/>
</signal>
<signal name="BATTERY+">
<contactref element="U$3" pad="P$2"/>
<contactref element="U$4" pad="P$2"/>
<contactref element="U$5" pad="P$2"/>
<contactref element="U$2" pad="P$2"/>
<contactref element="D4" pad="A"/>
<contactref element="U$12" pad="P$11"/>
<contactref element="U$12" pad="P$10"/>
<contactref element="U$12" pad="P$9"/>
<contactref element="U$12" pad="P$8"/>
<contactref element="U$12" pad="P$7"/>
<contactref element="U$12" pad="P$6"/>
<contactref element="U$12" pad="P$5"/>
<contactref element="U$12" pad="P$4"/>
<contactref element="U$12" pad="P$3"/>
<contactref element="U$12" pad="P$2"/>
<contactref element="U$12" pad="P$1"/>
<contactref element="JP2" pad="7"/>
<contactref element="JP2" pad="9"/>
<contactref element="JP2" pad="11"/>
<contactref element="JP2" pad="13"/>
<contactref element="JP2" pad="15"/>
<contactref element="JP2" pad="17"/>
<contactref element="JP2" pad="19"/>
<contactref element="JP2" pad="5"/>
<contactref element="JP2" pad="3"/>
<contactref element="JP2" pad="1"/>
<contactref element="JP2" pad="16"/>
<contactref element="JP2" pad="14"/>
<contactref element="JP2" pad="12"/>
<contactref element="JP2" pad="18"/>
<contactref element="JP2" pad="20"/>
<contactref element="R17" pad="1"/>
<polygon width="0.1524" layer="1" isolate="0.5" thermals="no">
<vertex x="11.43" y="90.805"/>
<vertex x="11.43" y="10.795"/>
<vertex x="47.625" y="10.795"/>
<vertex x="47.625" y="-17.145"/>
<vertex x="-1.905" y="-17.145"/>
<vertex x="-1.905" y="90.17"/>
<vertex x="-1.905" y="90.805"/>
</polygon>
<polygon width="0.1524" layer="16" isolate="0.5" thermals="no">
<vertex x="11.43" y="90.805"/>
<vertex x="11.43" y="10.795"/>
<vertex x="47.625" y="10.795"/>
<vertex x="47.625" y="-17.145"/>
<vertex x="-1.905" y="-17.145"/>
<vertex x="-1.905" y="90.17"/>
<vertex x="-1.905" y="90.805"/>
</polygon>
<wire x1="36.83" y1="50.38" x2="16.9332875" y2="50.38" width="0.1524" layer="1"/>
<wire x1="16.9332875" y1="50.38" x2="15.7196875" y2="51.5936" width="0.1524" layer="1"/>
<wire x1="15.7196875" y1="51.5936" x2="12.1036" y2="51.5936" width="0.1524" layer="1"/>
<wire x1="12.1036" y1="51.5936" x2="10.675" y2="50.165" width="0.1524" layer="1"/>
<contactref element="JP2" pad="10"/>
<contactref element="U$12" pad="P$13"/>
<contactref element="U$12" pad="P$16"/>
<contactref element="JP2" pad="4"/>
</signal>
<signal name="VCC">
<contactref element="JP1" pad="2"/>
<contactref element="C1" pad="1"/>
<contactref element="C2" pad="1"/>
<contactref element="D4" pad="C"/>
<contactref element="R22" pad="1"/>
<contactref element="R24" pad="1"/>
<contactref element="R26" pad="1"/>
<contactref element="U$7" pad="P$4"/>
<contactref element="R16" pad="2"/>
<contactref element="R31" pad="1"/>
<contactref element="R32" pad="1"/>
<contactref element="R33" pad="2"/>
<polygon width="0.1524" layer="16" isolate="0.5">
<vertex x="81.915" y="11.43"/>
<vertex x="19.685" y="11.43"/>
<vertex x="19.685" y="85.725"/>
<vertex x="81.915" y="85.725"/>
</polygon>
<wire x1="46.57" y1="55.88" x2="46.57" y2="56.935" width="0.1524" layer="1"/>
<wire x1="46.57" y1="56.935" x2="46.355" y2="57.15" width="0.1524" layer="1"/>
<via x="46.355" y="57.15" extent="1-16" drill="0.35"/>
<wire x1="50.38" y1="55.88" x2="50.165" y2="56.095" width="0.1524" layer="1"/>
<wire x1="50.165" y1="56.095" x2="50.165" y2="57.15" width="0.1524" layer="1"/>
<via x="50.165" y="57.15" extent="1-16" drill="0.35"/>
<wire x1="40.64" y1="59.842" x2="41.6547125" y2="59.842" width="0.1524" layer="1"/>
<wire x1="46.1432875" y1="57.15" x2="46.355" y2="57.15" width="0.1524" layer="1"/>
<wire x1="45.0446875" y1="58.2486" x2="46.1432875" y2="57.15" width="0.1524" layer="1"/>
<wire x1="41.6547125" y1="59.842" x2="43.2481125" y2="58.2486" width="0.1524" layer="1"/>
<wire x1="43.2481125" y1="58.2486" x2="45.0446875" y2="58.2486" width="0.1524" layer="1"/>
<wire x1="59.842" y1="54.61" x2="59.842" y2="56.032" width="0.1524" layer="1"/>
<wire x1="59.842" y1="56.032" x2="60.325" y2="56.515" width="0.1524" layer="1"/>
<via x="60.325" y="56.515" extent="1-16" drill="0.35"/>
<wire x1="60.96" y1="46.14" x2="60.96" y2="44.45" width="0.1524" layer="1"/>
<via x="60.96" y="44.45" extent="1-16" drill="0.35"/>
<wire x1="66.192" y1="40.64" x2="66.192" y2="38.1" width="0.1524" layer="1"/>
<wire x1="66.192" y1="40.64" x2="62.382" y2="44.45" width="0.1524" layer="1"/>
<wire x1="62.382" y1="44.45" x2="60.96" y2="44.45" width="0.1524" layer="1"/>
<wire x1="40.64" y1="59.842" x2="40.64" y2="61.595" width="0.1524" layer="1"/>
<via x="40.64" y="61.595" extent="1-16" drill="0.35"/>
<via x="17.145" y="48.26" extent="1-16" drill="0.35"/>
<wire x1="18.5671875" y1="47.7294" x2="18.0365875" y2="48.26" width="1.27" layer="16"/>
<wire x1="18.5671875" y1="47.7294" x2="19.5328125" y2="47.7294" width="1.27" layer="16"/>
<wire x1="17.145" y1="48.26" x2="16.63" y2="48.26" width="1.27" layer="1"/>
<wire x1="49.44" y1="40.71" x2="49.44" y2="42.455" width="0.1524" layer="1"/>
<wire x1="49.44" y1="42.455" x2="49.53" y2="42.545" width="0.1524" layer="1"/>
<via x="49.53" y="42.545" extent="1-16" drill="0.35"/>
<wire x1="50.165" y1="57.15" x2="49.53" y2="57.785" width="0.1524" layer="16"/>
<wire x1="49.53" y1="61.7856" x2="43.815" y2="67.5006" width="0.1524" layer="16"/>
<via x="43.815" y="67.5006" extent="1-16" drill="0.35"/>
<wire x1="43.815" y1="67.5006" x2="42.1006" y2="69.215" width="0.1524" layer="1"/>
<wire x1="42.1006" y1="69.215" x2="41.91" y2="69.215" width="0.1524" layer="1"/>
<via x="41.91" y="69.215" extent="1-16" drill="0.35"/>
<wire x1="49.53" y1="57.785" x2="49.53" y2="61.7856" width="0.1524" layer="16"/>
<wire x1="41.275" y1="95.885" x2="41.275" y2="94.745925" width="0.1524" layer="16"/>
<wire x1="41.275" y1="94.745925" x2="42.2656" y2="93.755325" width="0.1524" layer="16"/>
<wire x1="42.2656" y1="93.755325" x2="42.2656" y2="85.09" width="0.1524" layer="16"/>
<wire x1="18.0365875" y1="48.26" x2="17.145" y2="48.26" width="1.27" layer="16"/>
<wire x1="16.63" y1="48.26" x2="14.725" y2="50.165" width="1.27" layer="1"/>
<wire x1="42.2656" y1="85.09" x2="42.2656" y2="70.8406" width="0.1524" layer="16"/>
<wire x1="42.2656" y1="70.8406" x2="38.1" y2="66.675" width="0.1524" layer="16"/>
<wire x1="38.1" y1="66.675" x2="38.1" y2="62.23" width="0.1524" layer="16"/>
<wire x1="38.1" y1="62.23" x2="40.64" y2="59.69" width="0.1524" layer="16"/>
<wire x1="40.64" y1="59.69" x2="40.64" y2="61.595" width="0.1524" layer="16"/>
<wire x1="34.0334125" y1="62.23" x2="38.1" y2="62.23" width="0.1524" layer="16"/>
<wire x1="28.95865" y1="41.3032" x2="29.46135" y2="41.3032" width="0.1524" layer="16"/>
<wire x1="29.46135" y1="41.3032" x2="29.8168" y2="41.65865" width="0.1524" layer="16"/>
<wire x1="19.5328125" y1="47.7294" x2="22.53245" y2="47.7294" width="0.1524" layer="16"/>
<wire x1="29.8168" y1="58.0133875" x2="34.0334125" y2="62.23" width="0.1524" layer="16"/>
<wire x1="22.53245" y1="47.7294" x2="28.95865" y2="41.3032" width="0.1524" layer="16"/>
<wire x1="29.8168" y1="41.65865" x2="29.8168" y2="58.0133875" width="0.1524" layer="16"/>
<wire x1="49.44" y1="40.71" x2="49.44" y2="36.87" width="0.3048" layer="1"/>
<wire x1="49.44" y1="36.87" x2="48.13" y2="35.56" width="0.3048" layer="1"/>
<wire x1="48.13" y1="35.56" x2="48.13" y2="33.02" width="0.3048" layer="1"/>
<wire x1="48.13" y1="33.02" x2="48.13" y2="31.245" width="0.3048" layer="1"/>
<wire x1="48.13" y1="31.245" x2="48.26" y2="31.115" width="0.3048" layer="1"/>
<via x="48.26" y="31.115" extent="1-16" drill="0.35"/>
</signal>
<signal name="GND">
<contactref element="U$1" pad="P$13"/>
<contactref element="U$1" pad="P$14"/>
<contactref element="U$1" pad="P$15"/>
<contactref element="U$1" pad="P$16"/>
<contactref element="JP1" pad="6"/>
<contactref element="C1" pad="2"/>
<contactref element="C2" pad="2"/>
<contactref element="JP3" pad="6"/>
<contactref element="JP3" pad="8"/>
<contactref element="JP3" pad="10"/>
<contactref element="JP3" pad="12"/>
<contactref element="JP3" pad="14"/>
<contactref element="JP3" pad="2"/>
<contactref element="JP3" pad="4"/>
<contactref element="JP3" pad="16"/>
<contactref element="JP3" pad="18"/>
<contactref element="JP3" pad="20"/>
<contactref element="JP3" pad="9"/>
<contactref element="JP3" pad="7"/>
<contactref element="JP3" pad="5"/>
<contactref element="JP3" pad="3"/>
<contactref element="JP3" pad="1"/>
<contactref element="U$11" pad="P$11"/>
<contactref element="U$11" pad="P$10"/>
<contactref element="U$11" pad="P$9"/>
<contactref element="U$11" pad="P$8"/>
<contactref element="U$11" pad="P$7"/>
<contactref element="U$11" pad="P$6"/>
<contactref element="U$11" pad="P$5"/>
<contactref element="U$11" pad="P$4"/>
<contactref element="U$11" pad="P$3"/>
<contactref element="U$11" pad="P$2"/>
<contactref element="U$11" pad="P$1"/>
<contactref element="R23" pad="2"/>
<contactref element="Q2" pad="2"/>
<contactref element="R25" pad="2"/>
<contactref element="Q3" pad="2"/>
<contactref element="R27" pad="2"/>
<contactref element="Q4" pad="2"/>
<contactref element="U$7" pad="P$5"/>
<contactref element="U$7" pad="P$21"/>
<contactref element="C13" pad="2"/>
<contactref element="U$8" pad="2"/>
<contactref element="C14" pad="1"/>
<contactref element="R28" pad="2"/>
<contactref element="C15" pad="2"/>
<contactref element="Q6" pad="2"/>
<contactref element="R29" pad="1"/>
<contactref element="C16" pad="2"/>
<polygon width="0.1524" layer="1" isolate="0.5" thermals="no">
<vertex x="82.55" y="10.795"/>
<vertex x="115.57" y="10.795"/>
<vertex x="115.57" y="113.665"/>
<vertex x="50.8" y="113.665"/>
<vertex x="50.8" y="86.995"/>
<vertex x="82.55" y="86.995"/>
<vertex x="82.55" y="61.595"/>
</polygon>
<polygon width="0.1524" layer="16" isolate="0.5" thermals="no">
<vertex x="82.55" y="10.795"/>
<vertex x="115.57" y="10.795"/>
<vertex x="115.57" y="113.665"/>
<vertex x="50.8" y="113.665"/>
<vertex x="50.8" y="86.995"/>
<vertex x="82.55" y="86.995"/>
<vertex x="82.55" y="61.595"/>
</polygon>
<wire x1="52.24" y1="60.01" x2="52.24" y2="57.45" width="0.1524" layer="1"/>
<wire x1="52.24" y1="57.45" x2="52.07" y2="57.28" width="0.1524" layer="1"/>
<wire x1="50.24" y1="37.465" x2="50.24" y2="36.755" width="0.1524" layer="1"/>
<wire x1="50.93" y1="36.065" x2="50.93" y2="35.56" width="0.1524" layer="1"/>
<wire x1="50.24" y1="36.755" x2="50.93" y2="36.065" width="0.1524" layer="1"/>
<wire x1="50.93" y1="35.56" x2="50.93" y2="33.02" width="0.1524" layer="1"/>
<wire x1="50.93" y1="33.02" x2="50.93" y2="32.89" width="0.1524" layer="1"/>
<wire x1="50.93" y1="32.89" x2="51.435" y2="32.385" width="0.1524" layer="1"/>
<wire x1="51.435" y1="32.385" x2="50.93" y2="32.89" width="0.1524" layer="1"/>
<wire x1="50.93" y1="32.89" x2="50.93" y2="33.02" width="0.1524" layer="1"/>
<polygon width="0.1524" layer="1" isolate="0.5">
<vertex x="82.55" y="11.43"/>
<vertex x="19.685" y="11.43"/>
<vertex x="19.685" y="106.045"/>
<vertex x="82.55" y="106.045"/>
</polygon>
<wire x1="43.5" y1="59.52" x2="43.6" y2="60.96" width="0.1524" layer="1"/>
<contactref element="JP3" pad="17"/>
<contactref element="U$11" pad="P$13"/>
<contactref element="JP3" pad="11"/>
<contactref element="U$11" pad="P$16"/>
<wire x1="39.37" y1="43.05" x2="41.145" y2="43.05" width="0.1524" layer="1"/>
<wire x1="41.145" y1="43.05" x2="41.275" y2="43.18" width="0.1524" layer="1"/>
<via x="41.275" y="43.18" extent="1-16" drill="0.35"/>
<wire x1="41.275" y1="43.18" x2="41.275" y2="50.165" width="0.1524" layer="16"/>
<wire x1="41.275" y1="50.165" x2="39.37" y2="52.07" width="0.1524" layer="16"/>
<via x="39.37" y="52.07" extent="1-16" drill="0.35"/>
<wire x1="49.44" y1="50.11" x2="49.44" y2="57.695" width="0.1524" layer="1"/>
<wire x1="50.8" y1="59.055" x2="50.8" y2="59.69" width="0.1524" layer="1"/>
<wire x1="50.8" y1="59.69" x2="51.12" y2="60.01" width="0.1524" layer="1"/>
<wire x1="51.12" y1="60.01" x2="52.24" y2="60.01" width="0.1524" layer="1"/>
<wire x1="49.44" y1="57.695" x2="50.8" y2="59.055" width="0.1524" layer="1"/>
<wire x1="41.91" y1="50.93" x2="41.275" y2="51.565" width="0.1524" layer="1"/>
<wire x1="41.275" y1="51.565" x2="41.275" y2="52.705" width="0.1524" layer="1"/>
<via x="41.275" y="52.705" extent="1-16" drill="0.35"/>
<wire x1="41.275" y1="52.705" x2="43.18" y2="50.8" width="0.1524" layer="16"/>
<wire x1="43.18" y1="50.8" x2="43.18" y2="47.625" width="0.1524" layer="16"/>
<wire x1="43.18" y1="47.625" x2="43.815" y2="46.99" width="0.1524" layer="16"/>
<wire x1="43.815" y1="46.99" x2="48.26" y2="46.99" width="0.1524" layer="16"/>
<via x="48.26" y="46.99" extent="1-16" drill="0.35"/>
<wire x1="49.44" y1="50.11" x2="49.44" y2="48.17" width="0.1524" layer="1"/>
<wire x1="49.44" y1="48.17" x2="48.26" y2="46.99" width="0.1524" layer="1"/>
<wire x1="50.24" y1="40.71" x2="50.24" y2="37.465" width="0.3048" layer="1"/>
</signal>
<signal name="RESET">
<contactref element="JP1" pad="5"/>
<contactref element="U$7" pad="P$29"/>
<contactref element="R33" pad="1"/>
<wire x1="45.14" y1="45.01" x2="46.915" y2="45.01" width="0.1524" layer="1"/>
<wire x1="46.915" y1="45.01" x2="46.99" y2="45.085" width="0.1524" layer="1"/>
<wire x1="46.99" y1="45.085" x2="46.99" y2="48.26" width="0.1524" layer="1"/>
<wire x1="40.64" y1="54.61" x2="40.64" y2="56.998" width="0.1524" layer="1"/>
<wire x1="46.99" y1="48.26" x2="40.64" y2="54.61" width="0.1524" layer="1"/>
<wire x1="36.195" y1="93.345" x2="36.195" y2="61.443" width="0.1524" layer="1"/>
<wire x1="36.195" y1="61.443" x2="40.64" y2="56.998" width="0.1524" layer="1"/>
</signal>
<signal name="SCKH">
<contactref element="JP1" pad="3"/>
<contactref element="U$12" pad="P$14"/>
<contactref element="JP2" pad="6"/>
<contactref element="U$7" pad="P$17"/>
<via x="57.785" y="56.515" extent="1-16" drill="0.35"/>
<wire x1="57.8926875" y1="53.4799" x2="58.0266" y2="53.6138125" width="0.1524" layer="1"/>
<wire x1="58.0266" y1="53.6138125" x2="58.0266" y2="55.6061875" width="0.1524" layer="1"/>
<wire x1="52.64" y1="50.11" x2="56.0099" y2="53.4799" width="0.1524" layer="1"/>
<wire x1="57.785" y1="55.8477875" x2="57.785" y2="56.515" width="0.1524" layer="1"/>
<wire x1="56.0099" y1="53.4799" x2="57.8926875" y2="53.4799" width="0.1524" layer="1"/>
<wire x1="58.0266" y1="55.6061875" x2="57.785" y2="55.8477875" width="0.1524" layer="1"/>
<wire x1="57.785" y1="56.515" x2="50.165" y2="64.135" width="0.1524" layer="16"/>
<wire x1="50.165" y1="64.135" x2="50.165" y2="67.31" width="0.1524" layer="16"/>
<via x="50.165" y="67.31" extent="1-16" drill="0.35"/>
<wire x1="50.165" y1="67.31" x2="50.165" y2="81.915" width="0.1524" layer="1"/>
<wire x1="50.165" y1="81.915" x2="38.735" y2="93.345" width="0.1524" layer="1"/>
<via x="20.947778125" y="38.092778125" extent="1-16" drill="0.35"/>
<wire x1="3.73" y1="43.65" x2="4.869075" y2="43.65" width="0.1524" layer="16"/>
<wire x1="4.869075" y1="43.65" x2="5.859675" y2="44.6406" width="0.1524" layer="16"/>
<wire x1="5.859675" y1="44.6406" x2="14.39995625" y2="44.6406" width="0.1524" layer="16"/>
<wire x1="14.39995625" y1="44.6406" x2="20.947778125" y2="38.092778125" width="0.1524" layer="16"/>
<via x="22.86" y="12.7" extent="1-16" drill="0.35"/>
<wire x1="22.86" y1="17.72765" x2="22.86" y2="12.7" width="0.1524" layer="1"/>
<wire x1="25.3422" y1="20.20985" x2="22.86" y2="17.72765" width="0.1524" layer="1"/>
<wire x1="25.3422" y1="33.69835625" x2="25.3422" y2="33.655" width="0.1524" layer="1"/>
<wire x1="25.3422" y1="33.655" x2="25.3422" y2="20.20985" width="0.1524" layer="1"/>
<wire x1="20.947778125" y1="38.092778125" x2="25.3422" y2="33.69835625" width="0.1524" layer="1"/>
<wire x1="22.86" y1="12.7" x2="22.86" y2="8.185" width="0.1524" layer="16"/>
<wire x1="22.86" y1="8.185" x2="23.005" y2="8.04" width="0.1524" layer="16"/>
<wire x1="52.64" y1="50.11" x2="52.64" y2="48.195" width="0.1524" layer="1"/>
<wire x1="38.1" y1="33.655" x2="25.3422" y2="33.655" width="0.1524" layer="1"/>
<wire x1="52.64" y1="48.195" x2="38.1" y2="33.655" width="0.1524" layer="1"/>
</signal>
<signal name="MISOH">
<contactref element="JP1" pad="1"/>
<contactref element="R26" pad="2"/>
<contactref element="Q4" pad="3"/>
<contactref element="U$7" pad="P$16"/>
<wire x1="60.96" y1="47.84" x2="61.98" y2="47.84" width="0.1524" layer="1"/>
<wire x1="61.98" y1="47.84" x2="62.315" y2="48.175" width="0.1524" layer="1"/>
<wire x1="62.315" y1="48.175" x2="62.4" y2="48.26" width="0.1524" layer="1"/>
<wire x1="54.54" y1="48.21" x2="60.59" y2="48.21" width="0.1524" layer="1"/>
<wire x1="60.59" y1="48.21" x2="60.96" y2="47.84" width="0.1524" layer="1"/>
<wire x1="41.275" y1="93.345" x2="62.315" y2="72.305" width="0.1524" layer="1"/>
<wire x1="62.315" y1="72.305" x2="62.315" y2="48.175" width="0.1524" layer="1"/>
</signal>
<signal name="MOSIH">
<contactref element="JP1" pad="4"/>
<contactref element="JP2" pad="2"/>
<contactref element="U$12" pad="P$12"/>
<contactref element="U$7" pad="P$15"/>
<via x="41.275" y="65.405" extent="1-16" drill="0.35"/>
<wire x1="38.735" y1="95.885" x2="38.735" y2="94.745925" width="0.1524" layer="1"/>
<wire x1="38.735" y1="94.745925" x2="37.7444" y2="93.755325" width="0.1524" layer="1"/>
<wire x1="37.7444" y1="93.755325" x2="37.7444" y2="68.9356" width="0.1524" layer="1"/>
<wire x1="37.7444" y1="68.9356" x2="41.275" y2="65.405" width="0.1524" layer="1"/>
<wire x1="56.515" y1="50.165" x2="56.515" y2="47.6032" width="0.1524" layer="16"/>
<via x="56.515" y="47.6032" extent="1-16" drill="0.35"/>
<wire x1="47.4264" y1="51.81865" x2="47.78185" y2="51.4632" width="0.1524" layer="16"/>
<wire x1="41.275" y1="65.405" x2="47.4264" y2="59.2536" width="0.1524" layer="16"/>
<wire x1="55.2168" y1="51.4632" x2="56.515" y2="50.165" width="0.1524" layer="16"/>
<wire x1="47.4264" y1="59.2536" x2="47.4264" y2="51.81865" width="0.1524" layer="16"/>
<wire x1="47.78185" y1="51.4632" x2="55.2168" y2="51.4632" width="0.1524" layer="16"/>
<wire x1="54.54" y1="47.41" x2="54.61" y2="47.41" width="0.1524" layer="1"/>
<wire x1="54.61" y1="47.41" x2="56.3218" y2="47.41" width="0.1524" layer="1"/>
<wire x1="56.3218" y1="47.41" x2="56.515" y2="47.6032" width="0.1524" layer="1"/>
<wire x1="31.405" y1="8.04" x2="19.76" y2="19.685" width="0.1524" layer="16"/>
<wire x1="19.76" y1="19.685" x2="19.05" y2="19.685" width="0.1524" layer="16"/>
<wire x1="13.335" y1="34.29" x2="13.335" y2="25.4" width="0.1524" layer="16"/>
<wire x1="19.05" y1="19.685" x2="16.8586" y2="21.8764" width="0.1524" layer="16"/>
<wire x1="16.8586" y1="21.8764" x2="16.8586" y2="21.93888125" width="0.1524" layer="16"/>
<wire x1="16.8586" y1="21.93888125" x2="15.93388125" y2="22.8636" width="0.1524" layer="16"/>
<wire x1="15.93388125" y1="22.8636" x2="15.8714" y2="22.8636" width="0.1524" layer="16"/>
<wire x1="15.8714" y1="22.8636" x2="13.335" y2="25.4" width="0.1524" layer="16"/>
<wire x1="3.73" y1="38.57" x2="7.375" y2="34.925" width="0.1524" layer="16"/>
<wire x1="7.375" y1="34.925" x2="12.7" y2="34.925" width="0.1524" layer="16"/>
<wire x1="12.7" y1="34.925" x2="13.335" y2="34.29" width="0.1524" layer="16"/>
<wire x1="13.335" y1="34.29" x2="39.59315" y2="34.29" width="0.1524" layer="16"/>
<wire x1="39.59315" y1="34.29" x2="47.736575" y2="42.433425" width="0.1524" layer="16"/>
<via x="47.736575" y="42.433425" extent="1-16" drill="0.35"/>
<wire x1="47.736575" y1="42.433425" x2="52.71315" y2="47.41" width="0.1524" layer="1"/>
<wire x1="52.71315" y1="47.41" x2="54.61" y2="47.41" width="0.1524" layer="1"/>
</signal>
<signal name="MOSIL">
<contactref element="R22" pad="2"/>
<contactref element="Q2" pad="3"/>
<contactref element="U$7" pad="P$22"/>
<wire x1="48.64" y1="50.11" x2="48.64" y2="55.84" width="0.1524" layer="1"/>
<wire x1="48.64" y1="55.84" x2="48.68" y2="55.88" width="0.1524" layer="1"/>
<wire x1="48.68" y1="55.88" x2="48.68" y2="56.9" width="0.1524" layer="1"/>
<wire x1="48.68" y1="56.9" x2="48.26" y2="57.32" width="0.1524" layer="1"/>
</signal>
<signal name="MISOL">
<contactref element="U$11" pad="P$15"/>
<contactref element="JP3" pad="13"/>
<contactref element="U$7" pad="P$23"/>
<wire x1="47.84" y1="50.11" x2="47.84" y2="51.8768" width="0.1524" layer="1"/>
<wire x1="47.84" y1="51.8768" x2="48.0332" y2="52.07" width="0.1524" layer="1"/>
<via x="48.0332" y="52.07" extent="1-16" drill="0.35"/>
<wire x1="95.130925" y1="53.81" x2="96.27" y2="53.81" width="0.1524" layer="16"/>
<wire x1="94.140325" y1="54.8006" x2="95.130925" y2="53.81" width="0.1524" layer="16"/>
<wire x1="50.7638" y1="54.8006" x2="64.77" y2="54.8006" width="0.1524" layer="16"/>
<wire x1="64.77" y1="54.8006" x2="94.140325" y2="54.8006" width="0.1524" layer="16"/>
<wire x1="48.0332" y1="52.07" x2="50.7638" y2="54.8006" width="0.1524" layer="16"/>
<wire x1="80.89" y1="91.655" x2="64.77" y2="75.535" width="0.1524" layer="16"/>
<wire x1="64.77" y1="75.535" x2="64.77" y2="70.485" width="0.1524" layer="16"/>
<via x="64.77" y="70.485" extent="1-16" drill="0.35"/>
<wire x1="64.77" y1="70.485" x2="64.77" y2="54.8006" width="0.1524" layer="1"/>
<via x="64.77" y="54.8006" extent="1-16" drill="0.35"/>
</signal>
<signal name="SCKL">
<contactref element="R24" pad="2"/>
<contactref element="Q3" pad="3"/>
<contactref element="U$7" pad="P$24"/>
<wire x1="47.04" y1="50.11" x2="47.04" y2="53.71" width="0.1524" layer="1"/>
<wire x1="47.04" y1="53.71" x2="44.87" y2="55.88" width="0.1524" layer="1"/>
<wire x1="44.87" y1="55.88" x2="44.87" y2="56.9" width="0.1524" layer="1"/>
<wire x1="44.87" y1="56.9" x2="44.45" y2="57.32" width="0.1524" layer="1"/>
</signal>
<signal name="MOSIFEMALE">
<contactref element="JP3" pad="19"/>
<contactref element="U$11" pad="P$12"/>
<contactref element="C10" pad="1"/>
<wire x1="96.27" y1="61.43" x2="88.485" y2="69.215" width="0.1524" layer="16"/>
<wire x1="88.485" y1="69.215" x2="55.88" y2="69.215" width="0.1524" layer="16"/>
<via x="55.88" y="69.215" extent="1-16" drill="0.35"/>
<wire x1="48.26" y1="66.17" x2="52.835" y2="66.17" width="0.1524" layer="1"/>
<wire x1="52.835" y1="66.17" x2="55.88" y2="69.215" width="0.1524" layer="1"/>
<wire x1="68.29" y1="91.655" x2="68.29" y2="90.515" width="0.1524" layer="16"/>
<wire x1="68.29" y1="90.515" x2="48.26" y2="70.485" width="0.1524" layer="16"/>
<via x="48.26" y="70.485" extent="1-16" drill="0.35"/>
<wire x1="48.26" y1="70.485" x2="48.26" y2="66.17" width="0.1524" layer="1"/>
</signal>
<signal name="SCKFEMALE">
<contactref element="U$11" pad="P$14"/>
<contactref element="JP3" pad="15"/>
<contactref element="C11" pad="1"/>
<wire x1="46.355" y1="68.58" x2="57.785" y2="68.58" width="0.1524" layer="16"/>
<via x="46.355" y="68.58" extent="1-16" drill="0.35"/>
<wire x1="46.355" y1="68.58" x2="44.45" y2="66.675" width="0.1524" layer="1"/>
<wire x1="44.45" y1="66.675" x2="44.45" y2="66.17" width="0.1524" layer="1"/>
<wire x1="57.785" y1="68.58" x2="60.0075" y2="66.3575" width="0.1524" layer="16"/>
<wire x1="60.0075" y1="66.3575" x2="70.015" y2="56.35" width="0.1524" layer="16"/>
<wire x1="93.319675" y1="57.3406" x2="94.140325" y2="57.3406" width="0.1524" layer="16"/>
<wire x1="70.015" y1="56.35" x2="92.329075" y2="56.35" width="0.1524" layer="16"/>
<wire x1="95.130925" y1="56.35" x2="96.27" y2="56.35" width="0.1524" layer="16"/>
<wire x1="92.329075" y1="56.35" x2="93.319675" y2="57.3406" width="0.1524" layer="16"/>
<wire x1="94.140325" y1="57.3406" x2="95.130925" y2="56.35" width="0.1524" layer="16"/>
<wire x1="76.69" y1="91.655" x2="60.325" y2="75.29" width="0.1524" layer="16"/>
<wire x1="60.325" y1="75.29" x2="60.325" y2="71.755" width="0.1524" layer="16"/>
<via x="60.325" y="71.755" extent="1-16" drill="0.35"/>
<wire x1="60.325" y1="71.755" x2="60.325" y2="66.675" width="0.1524" layer="1"/>
<wire x1="60.325" y1="66.675" x2="60.0075" y2="66.3575" width="0.1524" layer="1"/>
<via x="60.0075" y="66.3575" extent="1-16" drill="0.35"/>
</signal>
<signal name="MISOMALE">
<contactref element="U$12" pad="P$15"/>
<contactref element="JP2" pad="8"/>
<contactref element="C12" pad="1"/>
<wire x1="71.25" y1="48.26" x2="73.025" y2="48.26" width="0.1524" layer="1"/>
<via x="73.025" y="48.26" extent="1-16" drill="0.35"/>
<wire x1="73.025" y1="48.26" x2="73.025" y2="13.335" width="0.1524" layer="16"/>
<wire x1="73.025" y1="13.335" x2="71.12" y2="11.43" width="0.1524" layer="16"/>
<via x="71.12" y="11.43" extent="1-16" drill="0.35"/>
<wire x1="71.12" y1="11.43" x2="20.32" y2="11.43" width="0.1524" layer="1"/>
<via x="20.32" y="11.43" extent="1-16" drill="0.35"/>
<wire x1="20.32" y1="11.43" x2="18.805" y2="9.915" width="0.1524" layer="16"/>
<wire x1="18.805" y1="9.915" x2="18.805" y2="8.04" width="0.1524" layer="16"/>
<wire x1="20.32" y1="38.735" x2="13.335" y2="45.72" width="0.1524" layer="1"/>
<via x="13.335" y="45.72" extent="1-16" drill="0.35"/>
<wire x1="20.32" y1="11.43" x2="20.32" y2="19.84765" width="0.1524" layer="1"/>
<wire x1="20.32" y1="19.84765" x2="19.9578" y2="20.20985" width="0.1524" layer="1"/>
<wire x1="19.9578" y1="20.20985" x2="19.9578" y2="22.44015" width="0.1524" layer="1"/>
<wire x1="19.9578" y1="22.44015" x2="20.32" y2="22.80235" width="0.1524" layer="1"/>
<wire x1="20.32" y1="22.80235" x2="20.32" y2="36.195" width="0.1524" layer="1"/>
<wire x1="20.32" y1="36.195" x2="20.32" y2="38.735" width="0.1524" layer="1"/>
<wire x1="13.335" y1="45.72" x2="12.865" y2="46.19" width="0.1524" layer="16"/>
<wire x1="6.680325" y1="45.1994" x2="5.859675" y2="45.1994" width="0.1524" layer="16"/>
<wire x1="12.865" y1="46.19" x2="7.670925" y2="46.19" width="0.1524" layer="16"/>
<wire x1="4.869075" y1="46.19" x2="3.73" y2="46.19" width="0.1524" layer="16"/>
<wire x1="7.670925" y1="46.19" x2="6.680325" y2="45.1994" width="0.1524" layer="16"/>
<wire x1="5.859675" y1="45.1994" x2="4.869075" y2="46.19" width="0.1524" layer="16"/>
</signal>
<signal name="N$18">
<contactref element="Q2" pad="1"/>
<contactref element="C10" pad="2"/>
<contactref element="R23" pad="1"/>
<wire x1="49.11" y1="60.96" x2="49.11" y2="59.62" width="0.1524" layer="1"/>
<wire x1="49.11" y1="59.62" x2="49.21" y2="59.52" width="0.1524" layer="1"/>
<wire x1="48.26" y1="63.37" x2="49.11" y2="62.52" width="0.1524" layer="1"/>
<wire x1="49.11" y1="62.52" x2="49.11" y2="60.96" width="0.1524" layer="1"/>
</signal>
<signal name="N$17">
<contactref element="Q3" pad="1"/>
<contactref element="C11" pad="2"/>
<contactref element="R25" pad="1"/>
<wire x1="45.4" y1="59.52" x2="45.4" y2="60.86" width="0.1524" layer="1"/>
<wire x1="45.4" y1="60.86" x2="45.3" y2="60.96" width="0.1524" layer="1"/>
<wire x1="45.3" y1="60.96" x2="45.3" y2="62.52" width="0.1524" layer="1"/>
<wire x1="45.3" y1="62.52" x2="44.45" y2="63.37" width="0.1524" layer="1"/>
</signal>
<signal name="N$19">
<contactref element="Q4" pad="1"/>
<contactref element="C12" pad="2"/>
<contactref element="R27" pad="1"/>
<wire x1="64.6" y1="47.31" x2="64.7" y2="47.41" width="0.1524" layer="1"/>
<wire x1="64.7" y1="47.41" x2="66.04" y2="47.41" width="0.1524" layer="1"/>
<wire x1="66.04" y1="47.41" x2="67.6" y2="47.41" width="0.1524" layer="1"/>
<wire x1="67.6" y1="47.41" x2="68.45" y2="48.26" width="0.1524" layer="1"/>
</signal>
<signal name="N$20">
<contactref element="U$7" pad="P$14"/>
</signal>
<signal name="N$11">
<contactref element="R15" pad="2"/>
<contactref element="C13" pad="1"/>
<contactref element="U$8" pad="1"/>
<contactref element="U$7" pad="P$20"/>
<wire x1="52.07" y1="54.48" x2="50.24" y2="52.65" width="0.1524" layer="1"/>
<wire x1="50.24" y1="52.65" x2="50.24" y2="50.11" width="0.1524" layer="1"/>
<wire x1="52.24" y1="61.91" x2="53.188" y2="62.858" width="0.1524" layer="1"/>
<wire x1="53.188" y1="62.858" x2="53.188" y2="63.5" width="0.1524" layer="1"/>
<wire x1="52.24" y1="61.91" x2="52.24" y2="61.5332875" width="0.1524" layer="1"/>
<wire x1="52.24" y1="61.5332875" x2="53.1986" y2="60.5746875" width="0.1524" layer="1"/>
<wire x1="53.1986" y1="60.5746875" x2="53.1986" y2="55.6086" width="0.1524" layer="1"/>
<wire x1="53.1986" y1="55.6086" x2="52.07" y2="54.48" width="0.1524" layer="1"/>
</signal>
<signal name="N$12">
<contactref element="R16" pad="1"/>
<contactref element="C14" pad="2"/>
<contactref element="U$7" pad="P$18"/>
<wire x1="51.84" y1="50.11" x2="51.84" y2="51.205" width="0.1524" layer="1"/>
<wire x1="54.61" y1="53.975" x2="54.61" y2="54.48" width="0.1524" layer="1"/>
<wire x1="51.84" y1="51.205" x2="54.61" y2="53.975" width="0.1524" layer="1"/>
<wire x1="54.61" y1="54.48" x2="56.868" y2="54.48" width="0.1524" layer="1"/>
<wire x1="56.868" y1="54.48" x2="56.998" y2="54.61" width="0.1524" layer="1"/>
</signal>
<signal name="N$13">
<contactref element="U$7" pad="P$25"/>
<contactref element="R15" pad="1"/>
<contactref element="R30" pad="1"/>
<wire x1="45.14" y1="48.21" x2="43.8532875" y2="48.21" width="0.1524" layer="1"/>
<wire x1="43.8532875" y1="48.21" x2="43.17414375" y2="48.88914375" width="0.1524" layer="1"/>
<wire x1="43.17414375" y1="48.88914375" x2="42.9046875" y2="49.1586" width="0.1524" layer="1"/>
<wire x1="43.17414375" y1="48.88914375" x2="42.9046875" y2="49.1586" width="0.1524" layer="1"/>
<wire x1="42.9046875" y1="49.1586" x2="42.6546875" y2="49.4086" width="0.1524" layer="1"/>
<wire x1="42.6546875" y1="49.4086" x2="35.9216" y2="49.4086" width="0.1524" layer="1"/>
<wire x1="35.9216" y1="49.4086" x2="32.385" y2="45.872" width="0.1524" layer="1"/>
<wire x1="45.14" y1="48.21" x2="44.45" y2="48.9" width="0.1524" layer="1"/>
<wire x1="44.45" y1="48.9" x2="44.45" y2="49.53" width="0.1524" layer="1"/>
<via x="44.45" y="49.53" extent="1-16" drill="0.35"/>
<wire x1="40.6682" y1="65.15365" x2="40.6682" y2="65.65635" width="0.1524" layer="16"/>
<wire x1="44.45" y1="61.37185" x2="40.6682" y2="65.15365" width="0.1524" layer="16"/>
<wire x1="40.6682" y1="65.65635" x2="44.83365" y2="69.8218" width="0.1524" layer="16"/>
<wire x1="44.45" y1="49.53" x2="44.45" y2="61.37185" width="0.1524" layer="16"/>
<wire x1="58.3918" y1="69.8218" x2="58.42" y2="69.85" width="0.1524" layer="16"/>
<via x="58.42" y="69.85" extent="1-16" drill="0.35"/>
<wire x1="58.42" y1="69.85" x2="58.42" y2="65.888" width="0.1524" layer="1"/>
<wire x1="58.42" y1="65.888" x2="56.032" y2="63.5" width="0.1524" layer="1"/>
<wire x1="44.83365" y1="69.8218" x2="58.3918" y2="69.8218" width="0.1524" layer="16"/>
</signal>
<signal name="N$22">
<contactref element="R17" pad="2"/>
<contactref element="R28" pad="1"/>
<contactref element="C15" pad="1"/>
<contactref element="U$7" pad="P$26"/>
<wire x1="41.91" y1="48.13" x2="42.63" y2="47.41" width="0.1524" layer="1"/>
<wire x1="42.63" y1="47.41" x2="45.14" y2="47.41" width="0.1524" layer="1"/>
<wire x1="41.91" y1="48.13" x2="41.36" y2="48.68" width="0.1524" layer="1"/>
<wire x1="41.36" y1="48.68" x2="39.37" y2="48.68" width="0.1524" layer="1"/>
<wire x1="39.37" y1="48.68" x2="36.83" y2="48.68" width="0.1524" layer="1"/>
</signal>
<signal name="N$21">
<contactref element="R31" pad="2"/>
<contactref element="R32" pad="2"/>
<contactref element="Q6" pad="3"/>
<wire x1="63.348" y1="40.64" x2="63.348" y2="38.1" width="0.1524" layer="1"/>
<wire x1="60.79" y1="40.64" x2="63.348" y2="40.64" width="0.3048" layer="1"/>
</signal>
<signal name="N$23">
<contactref element="U$7" pad="P$9"/>
<contactref element="Q6" pad="1"/>
<wire x1="58.59" y1="41.59" x2="57.57" y2="42.61" width="0.1524" layer="1"/>
<wire x1="57.57" y1="42.61" x2="54.54" y2="42.61" width="0.1524" layer="1"/>
</signal>
<signal name="N$25">
<contactref element="R29" pad="2"/>
<contactref element="R30" pad="2"/>
<contactref element="U$7" pad="P$27"/>
<contactref element="C16" pad="1"/>
<wire x1="32.385" y1="43.028" x2="35.077" y2="45.72" width="0.1524" layer="1"/>
<wire x1="35.077" y1="45.72" x2="35.56" y2="45.72" width="0.1524" layer="1"/>
<wire x1="35.56" y1="45.72" x2="35.69" y2="45.85" width="0.1524" layer="1"/>
<wire x1="35.69" y1="45.85" x2="39.37" y2="45.85" width="0.1524" layer="1"/>
<wire x1="45.14" y1="46.61" x2="42.8" y2="46.61" width="0.1524" layer="1"/>
<wire x1="42.04" y1="45.85" x2="39.37" y2="45.85" width="0.1524" layer="1"/>
<wire x1="42.8" y1="46.61" x2="42.04" y2="45.85" width="0.1524" layer="1"/>
</signal>
<signal name="TX">
<contactref element="JP4" pad="1"/>
<contactref element="U$7" pad="P$31"/>
<wire x1="45.14" y1="43.41" x2="43.0232875" y2="43.41" width="0.1524" layer="1"/>
<wire x1="41.3078875" y1="41.6946" x2="43.0232875" y2="43.41" width="0.1524" layer="1"/>
<wire x1="28.575" y1="42.545" x2="29.21" y2="41.91" width="0.1524" layer="16"/>
<via x="29.21" y="41.91" extent="1-16" drill="0.35"/>
<wire x1="29.21" y1="41.91" x2="29.4254" y2="41.6946" width="0.1524" layer="1"/>
<wire x1="28.575" y1="93.345" x2="28.575" y2="42.545" width="0.1524" layer="16"/>
<wire x1="29.4254" y1="41.6946" x2="41.3078875" y2="41.6946" width="0.1524" layer="1"/>
</signal>
<signal name="RX">
<contactref element="JP4" pad="2"/>
<contactref element="U$7" pad="P$30"/>
<wire x1="19.925" y1="44.21" x2="19.05" y2="45.085" width="0.1524" layer="1"/>
<wire x1="45.14" y1="44.21" x2="33.99805625" y2="44.21" width="0.1524" layer="1"/>
<wire x1="33.99805625" y1="44.21" x2="33.5151" y2="43.72704375" width="0.1524" layer="1"/>
<wire x1="33.5151" y1="43.72704375" x2="33.5151" y2="42.1333125" width="0.1524" layer="1"/>
<wire x1="33.5151" y1="42.1333125" x2="33.3811875" y2="41.9994" width="0.1524" layer="1"/>
<wire x1="33.3811875" y1="41.9994" x2="31.3888125" y2="41.9994" width="0.1524" layer="1"/>
<wire x1="29.1782125" y1="44.21" x2="19.925" y2="44.21" width="0.1524" layer="1"/>
<wire x1="31.3888125" y1="41.9994" x2="29.1782125" y2="44.21" width="0.1524" layer="1"/>
<wire x1="19.05" y1="45.085" x2="19.05" y2="48.895" width="0.1524" layer="1"/>
<via x="19.05" y="48.895" extent="1-16" drill="0.35"/>
<wire x1="19.05" y1="48.895" x2="19.05" y2="86.36" width="0.1524" layer="16"/>
<wire x1="19.05" y1="86.36" x2="28.575" y2="95.885" width="0.1524" layer="16"/>
</signal>
<signal name="N$1">
<contactref element="JP5" pad="3"/>
<contactref element="U$7" pad="P$1"/>
<wire x1="47.04" y1="40.71" x2="46.99" y2="40.66" width="0.1524" layer="1"/>
<wire x1="46.99" y1="38.735" x2="38.735" y2="30.48" width="0.1524" layer="1"/>
<wire x1="46.99" y1="40.66" x2="46.99" y2="38.735" width="0.1524" layer="1"/>
</signal>
<signal name="N$2">
<contactref element="JP5" pad="2"/>
<contactref element="U$7" pad="P$2"/>
<wire x1="47.84" y1="40.71" x2="47.84" y2="38.95" width="0.1524" layer="1"/>
<wire x1="41.275" y1="32.385" x2="41.275" y2="30.48" width="0.1524" layer="1"/>
<wire x1="47.84" y1="38.95" x2="41.275" y2="32.385" width="0.1524" layer="1"/>
</signal>
<signal name="N$3">
<contactref element="U$7" pad="P$3"/>
<contactref element="JP5" pad="1"/>
<wire x1="48.64" y1="40.71" x2="48.64" y2="39.115" width="0.1524" layer="1"/>
<wire x1="43.815" y1="34.29" x2="43.815" y2="30.48" width="0.1524" layer="1"/>
<wire x1="48.64" y1="39.115" x2="43.815" y2="34.29" width="0.1524" layer="1"/>
</signal>
<signal name="N$4">
<contactref element="JP6" pad="3"/>
<contactref element="U$7" pad="P$6"/>
<wire x1="51.04" y1="40.71" x2="51.04" y2="38.495" width="0.1524" layer="1"/>
<wire x1="51.04" y1="38.495" x2="56.515" y2="33.02" width="0.1524" layer="1"/>
<wire x1="56.515" y1="33.02" x2="56.515" y2="30.48" width="0.1524" layer="1"/>
</signal>
<signal name="N$5">
<contactref element="JP6" pad="2"/>
<contactref element="U$7" pad="P$7"/>
<wire x1="51.84" y1="40.71" x2="51.84" y2="38.33" width="0.1524" layer="1"/>
<wire x1="51.84" y1="38.33" x2="59.055" y2="31.115" width="0.1524" layer="1"/>
<wire x1="59.055" y1="31.115" x2="59.055" y2="30.48" width="0.1524" layer="1"/>
</signal>
<signal name="N$6">
<contactref element="JP6" pad="1"/>
<contactref element="U$7" pad="P$8"/>
<wire x1="52.64" y1="40.71" x2="52.64" y2="38.8" width="0.1524" layer="1"/>
<wire x1="52.64" y1="38.8" x2="57.785" y2="33.655" width="0.1524" layer="1"/>
<wire x1="57.785" y1="33.655" x2="59.69" y2="33.655" width="0.1524" layer="1"/>
<wire x1="59.69" y1="33.655" x2="61.595" y2="31.75" width="0.1524" layer="1"/>
<wire x1="61.595" y1="31.75" x2="61.595" y2="30.48" width="0.1524" layer="1"/>
</signal>
</signals>
<mfgpreviewcolors>
<mfgpreviewcolor name="soldermaskcolor" color="0xC8008000"/>
<mfgpreviewcolor name="silkscreencolor" color="0xFFFEFEFE"/>
<mfgpreviewcolor name="backgroundcolor" color="0xFF282828"/>
<mfgpreviewcolor name="coppercolor" color="0xFFFFBF00"/>
<mfgpreviewcolor name="substratecolor" color="0xFF786E46"/>
</mfgpreviewcolors>
</board>
</drawing>
<compatibility>
<note version="6.3" minversion="6.2.2" severity="warning">
Since Version 6.2.2 text objects can contain more than one line,
which will not be processed correctly with this version.
</note>
<note version="8.2" severity="warning">
Since Version 8.2, EAGLE supports online libraries. The ids
of those online libraries will not be understood (or retained)
with this version.
</note>
<note version="8.3" severity="warning">
Since Version 8.3, EAGLE supports URNs for individual library
assets (packages, symbols, and devices). The URNs of those assets
will not be understood (or retained) with this version.
</note>
<note version="8.3" severity="warning">
Since Version 8.3, EAGLE supports the association of 3D packages
with devices in libraries, schematics, and board files. Those 3D
packages will not be understood (or retained) with this version.
</note>
</compatibility>
</eagle>
