G04 EAGLE Gerber X2 export*
%TF.Part,Single*%
%TF.FileFunction,Soldermask,Top,1*%
%TF.FilePolarity,Negative*%
%TF.GenerationSoftware,Autodesk,EAGLE,9.1.3*%
%TF.CreationDate,2018-11-17T20:43:07Z*%
G75*
%MOMM*%
%FSLAX34Y34*%
%LPD*%
%AMOC8*
5,1,8,0,0,1.08239X$1,22.5*%
G01*
%ADD10C,3.203200*%
%ADD11R,1.803200X2.003200*%
%ADD12R,2.003200X1.803200*%
%ADD13R,2.003200X2.603200*%
%ADD14P,1.869504X8X202.500000*%
%ADD15P,1.869504X8X112.500000*%
%ADD16C,1.727200*%
%ADD17R,1.603200X1.203200*%
%ADD18R,1.803200X2.006200*%
%ADD19R,1.303200X1.203200*%
%ADD20R,1.203200X1.303200*%
%ADD21C,1.524000*%
%ADD22R,2.006200X1.803200*%
%ADD23C,2.903200*%
%ADD24C,3.053200*%
%ADD25C,3.403200*%
%ADD26R,2.903200X2.903200*%
%ADD27R,2.743200X3.378200*%
%ADD28R,0.703200X2.203200*%
%ADD29R,2.203200X0.703200*%
%ADD30P,1.869504X8X22.500000*%


D10*
X50000Y50000D03*
X950000Y950000D03*
X50000Y950000D03*
X950000Y50000D03*
D11*
X481300Y330200D03*
X509300Y330200D03*
D12*
X482600Y661700D03*
X482600Y633700D03*
X444500Y661700D03*
X444500Y633700D03*
D11*
X712500Y482600D03*
X684500Y482600D03*
D12*
X520700Y544800D03*
X520700Y572800D03*
X546100Y572800D03*
X546100Y544800D03*
X419100Y481300D03*
X419100Y509300D03*
X393700Y458500D03*
X393700Y430500D03*
D11*
X481300Y355600D03*
X509300Y355600D03*
D13*
X147250Y501650D03*
X106750Y501650D03*
D14*
X412750Y933450D03*
X412750Y958850D03*
X387350Y933450D03*
X387350Y958850D03*
X361950Y933450D03*
X361950Y958850D03*
D15*
X62700Y385700D03*
X37300Y385700D03*
X62700Y411100D03*
X37300Y411100D03*
X62700Y436500D03*
X37300Y436500D03*
X62700Y461900D03*
X37300Y461900D03*
X62700Y487300D03*
X37300Y487300D03*
X62700Y512700D03*
X37300Y512700D03*
X62700Y538100D03*
X37300Y538100D03*
X62700Y563500D03*
X37300Y563500D03*
X62700Y588900D03*
X37300Y588900D03*
X62700Y614300D03*
X37300Y614300D03*
X962700Y385700D03*
X937300Y385700D03*
X962700Y411100D03*
X937300Y411100D03*
X962700Y436500D03*
X937300Y436500D03*
X962700Y461900D03*
X937300Y461900D03*
X962700Y487300D03*
X937300Y487300D03*
X962700Y512700D03*
X937300Y512700D03*
X962700Y538100D03*
X937300Y538100D03*
X962700Y563500D03*
X937300Y563500D03*
X962700Y588900D03*
X937300Y588900D03*
X962700Y614300D03*
X937300Y614300D03*
D16*
X293370Y933450D02*
X278130Y933450D01*
X278130Y958850D02*
X293370Y958850D01*
D17*
X607900Y406400D03*
X585900Y396900D03*
X585900Y415900D03*
D18*
X560320Y635000D03*
X531880Y635000D03*
X569980Y546100D03*
X598420Y546100D03*
D19*
X368300Y503800D03*
X368300Y486800D03*
D20*
X503800Y558800D03*
X486800Y558800D03*
X465700Y558800D03*
X448700Y558800D03*
D19*
X609600Y461400D03*
X609600Y478400D03*
X393700Y486800D03*
X393700Y503800D03*
D21*
X362204Y431800D02*
X348996Y431800D01*
X348996Y457200D02*
X362204Y457200D01*
D22*
X323850Y458720D03*
X323850Y430280D03*
D18*
X661920Y406400D03*
X633480Y406400D03*
X661920Y381000D03*
X633480Y381000D03*
D22*
X406400Y569980D03*
X406400Y598420D03*
D23*
X152800Y791850D02*
X125800Y791850D01*
X125800Y598850D02*
X152800Y598850D01*
X152800Y405850D02*
X125800Y405850D01*
X125800Y212850D02*
X152800Y212850D01*
D24*
X854050Y791850D02*
X882550Y791850D01*
D23*
X881800Y598850D02*
X854800Y598850D01*
X854800Y405850D02*
X881800Y405850D01*
X881800Y212850D02*
X854800Y212850D01*
D25*
X226500Y792250D03*
X782600Y792250D03*
X226500Y599250D03*
X782600Y599250D03*
X226500Y406250D03*
X782600Y406250D03*
X226500Y213250D03*
X782600Y213250D03*
D26*
X850900Y971550D03*
X808900Y971550D03*
X766900Y971550D03*
X724900Y971550D03*
X682900Y971550D03*
X640900Y971550D03*
X598900Y971550D03*
X556900Y971550D03*
X556900Y916550D03*
X598900Y916550D03*
X640900Y916550D03*
X682900Y916550D03*
X724900Y916550D03*
X766900Y916550D03*
X808900Y916550D03*
X850900Y916550D03*
X146050Y25400D03*
X188050Y25400D03*
X230050Y25400D03*
X272050Y25400D03*
X314050Y25400D03*
X356050Y25400D03*
X398050Y25400D03*
X440050Y25400D03*
X440050Y80400D03*
X398050Y80400D03*
X356050Y80400D03*
X314050Y80400D03*
X272050Y80400D03*
X230050Y80400D03*
X188050Y80400D03*
X146050Y80400D03*
D27*
X158750Y755650D03*
X102870Y755650D03*
X158750Y558800D03*
X102870Y558800D03*
X158750Y368300D03*
X102870Y368300D03*
X158750Y177800D03*
X102870Y177800D03*
D28*
X470400Y407100D03*
X478400Y407100D03*
X486400Y407100D03*
X494400Y407100D03*
X502400Y407100D03*
X510400Y407100D03*
X518400Y407100D03*
X526400Y407100D03*
D29*
X545400Y426100D03*
X545400Y434100D03*
X545400Y442100D03*
X545400Y450100D03*
X545400Y458100D03*
X545400Y466100D03*
X545400Y474100D03*
X545400Y482100D03*
D28*
X526400Y501100D03*
X518400Y501100D03*
X510400Y501100D03*
X502400Y501100D03*
X494400Y501100D03*
X486400Y501100D03*
X478400Y501100D03*
X470400Y501100D03*
D29*
X451400Y482100D03*
X451400Y474100D03*
X451400Y466100D03*
X451400Y458100D03*
X451400Y450100D03*
X451400Y442100D03*
X451400Y434100D03*
X451400Y426100D03*
D17*
X544400Y609600D03*
X522400Y600100D03*
X522400Y619100D03*
D16*
X438150Y312420D02*
X438150Y297180D01*
X412750Y297180D02*
X412750Y312420D01*
X387350Y312420D02*
X387350Y297180D01*
X615950Y297180D02*
X615950Y312420D01*
X590550Y312420D02*
X590550Y297180D01*
X565150Y297180D02*
X565150Y312420D01*
D19*
X673100Y639200D03*
X673100Y656200D03*
D11*
X737900Y654050D03*
X709900Y654050D03*
D30*
X247650Y958850D03*
M02*
