%
M48
M72
T01C0.01378
T02C0.03200
T03C0.04000
T04C0.07087
T05C0.07480
T06C0.11811
T07C0.12598
%
T01
X88800Y113800
X98800Y118800
X91272Y218772
X61300Y248800
X76300Y258800
X83800Y261300
X123800Y233800
X163800Y273800
X171300Y276300
X183800Y263800
X197907Y273800
X198800Y253800
X196739Y235861
X203800Y236300
X231300Y256214
X248800Y243800
X263800Y284550
X246300Y291300
X236300Y291300
X206300Y293800
X191300Y293800
X168800Y311300
X171300Y326300
X181300Y334550
X173800Y341300
X191300Y338800
X198800Y346300
X206300Y333800
X228800Y341300
X238800Y343800
X246300Y351300
X263800Y346300
X245050Y330050
X296300Y258800
X198800Y191300
X171300Y238800
X288800Y113800
T02
X148800Y238800
X148800Y248800
T03
X161300Y188800
X171300Y188800
X181300Y188800
X231300Y188800
X241300Y188800
X251300Y188800
X377816Y220650
X387816Y220650
X387816Y230650
X377816Y230650
X377816Y240650
X387816Y240650
X387816Y250650
X377816Y250650
X377816Y260650
X387816Y260650
X387816Y270650
X377816Y270650
X377816Y280650
X387816Y280650
X387816Y290650
X377816Y290650
X377816Y300650
X387816Y300650
X387816Y310650
X377816Y310650
X171300Y436300
X171300Y446300
X161300Y446300
X161300Y436300
X151300Y436300
X151300Y446300
X121300Y446300
X121300Y436300
X33485Y310650
X33485Y300650
X33485Y290650
X33485Y280650
X33485Y270650
X33485Y260650
X33485Y250650
X33485Y240650
X33485Y230650
X33485Y220650
X23485Y220650
X23485Y230650
X23485Y240650
X23485Y250650
X23485Y260650
X23485Y270650
X23485Y280650
X23485Y290650
X23485Y300650
X23485Y310650
T04
X66300Y78800
X82835Y78800
X99371Y78800
X115906Y78800
X132442Y78800
X148977Y78800
X165513Y78800
X182048Y78800
X182048Y100454
X165513Y100454
X148977Y100454
X132442Y100454
X115906Y100454
X99371Y100454
X82835Y100454
X66300Y100454
X63643Y152599
X63643Y228583
X63643Y304568
X63643Y380552
X228052Y429646
X244587Y429646
X261123Y429646
X277658Y429646
X294194Y429646
X310729Y429646
X327265Y429646
X343800Y429646
X343800Y451300
X327265Y451300
X310729Y451300
X294194Y451300
X277658Y451300
X261123Y451300
X244587Y451300
X228052Y451300
X350650Y304568
X350650Y228583
X350650Y152599
T05
X350650Y380552
T06
X382816Y442816
X382816Y88485
X28485Y88485
X28485Y442816
T07
X97973Y380709
X97973Y304725
X97973Y228741
X97973Y152757
X316910Y152757
X316910Y228741
X316910Y304725
X316910Y380709
M30
